<?xml version="1.0" ?>
<COLLADA xmlns="http://www.collada.org/2005/11/COLLADASchema" version="1.4.1">
    <asset>
        <contributor>
            <authoring_tool>SonicGLvl - COLLADA Exporter</authoring_tool>
        </contributor>
        <unit name="meters" meter="1.0" />
        <up_axis>Y_UP</up_axis>
    </asset>
    <library_images>
        <image id="cmn_metal_ms_pulley_dif-image" name="cmn_metal_ms_pulley_dif-image">
            <init_from>./textures/cmn_metal_ms_pulley_dif.dds</init_from>
        </image>
        <image id="cmn_metal_ms_pulley_pow-image" name="cmn_metal_ms_pulley_pow-image">
            <init_from>./textures/cmn_metal_ms_pulley_pow.dds</init_from>
        </image>
        <image id="cmn_metal_ms_pulley_nrm-image" name="cmn_metal_ms_pulley_nrm-image">
            <init_from>./textures/cmn_metal_ms_pulley_nrm.dds</init_from>
        </image>
        <image id="cmn_metal_ms_pulleystand_dif-image" name="cmn_metal_ms_pulleystand_dif-image">
            <init_from>./textures/cmn_metal_ms_pulleystand_dif.dds</init_from>
        </image>
        <image id="cmn_metal_ms_pulleystand_pow-image" name="cmn_metal_ms_pulleystand_pow-image">
            <init_from>./textures/cmn_metal_ms_pulleystand_pow.dds</init_from>
        </image>
    </library_images>
    <library_materials>
        <material id="cmn_obj_pulley_HD_pulleyID" name="cmn_obj_pulley_HD_pulley">
            <instance_effect url="#cmn_obj_pulley_HD_pulley-effect" />
        </material>
        <material id="cmn_obj_pulley_HD_pstandID" name="cmn_obj_pulley_HD_pstand">
            <instance_effect url="#cmn_obj_pulley_HD_pstand-effect" />
        </material>
    </library_materials>
    <library_effects>
        <effect id="cmn_obj_pulley_HD_pulley-effect" name="cmn_obj_pulley_HD_pulley-effect">
            <profile_COMMON>
                <newparam sid="cmn_metal_ms_pulley_dif-image-surface">
                    <surface type="2D">
                        <init_from>cmn_metal_ms_pulley_dif-image</init_from>
                    </surface>
                </newparam>
                <newparam sid="cmn_metal_ms_pulley_dif-image-sampler">
                    <sampler2D>
                        <source>cmn_metal_ms_pulley_dif-image-surface</source>
                    </sampler2D>
                </newparam>
                <newparam sid="cmn_metal_ms_pulley_pow-image-surface">
                    <surface type="2D">
                        <init_from>cmn_metal_ms_pulley_pow-image</init_from>
                    </surface>
                </newparam>
                <newparam sid="cmn_metal_ms_pulley_pow-image-sampler">
                    <sampler2D>
                        <source>cmn_metal_ms_pulley_pow-image-surface</source>
                    </sampler2D>
                </newparam>
                <newparam sid="cmn_metal_ms_pulley_nrm-image-surface">
                    <surface type="2D">
                        <init_from>cmn_metal_ms_pulley_nrm-image</init_from>
                    </surface>
                </newparam>
                <newparam sid="cmn_metal_ms_pulley_nrm-image-sampler">
                    <sampler2D>
                        <source>cmn_metal_ms_pulley_nrm-image-surface</source>
                    </sampler2D>
                </newparam>
                <technique sid="COMMON">
                    <phong>
                        <diffuse>
                            <texture texture="cmn_metal_ms_pulley_dif-image-sampler" texcoord="UVSET0" />
                            <color>1.000000 1.000000 1.000000 1</color>
                        </diffuse>
                    </phong>
                </technique>
            </profile_COMMON>
        </effect>
        <effect id="cmn_obj_pulley_HD_pstand-effect" name="cmn_obj_pulley_HD_pstand-effect">
            <profile_COMMON>
                <newparam sid="cmn_metal_ms_pulleystand_dif-image-surface">
                    <surface type="2D">
                        <init_from>cmn_metal_ms_pulleystand_dif-image</init_from>
                    </surface>
                </newparam>
                <newparam sid="cmn_metal_ms_pulleystand_dif-image-sampler">
                    <sampler2D>
                        <source>cmn_metal_ms_pulleystand_dif-image-surface</source>
                    </sampler2D>
                </newparam>
                <newparam sid="cmn_metal_ms_pulleystand_pow-image-surface">
                    <surface type="2D">
                        <init_from>cmn_metal_ms_pulleystand_pow-image</init_from>
                    </surface>
                </newparam>
                <newparam sid="cmn_metal_ms_pulleystand_pow-image-sampler">
                    <sampler2D>
                        <source>cmn_metal_ms_pulleystand_pow-image-surface</source>
                    </sampler2D>
                </newparam>
                <technique sid="COMMON">
                    <phong>
                        <diffuse>
                            <texture texture="cmn_metal_ms_pulleystand_dif-image-sampler" texcoord="UVSET0" />
                            <color>1.000000 1.000000 1.000000 1</color>
                        </diffuse>
                    </phong>
                </technique>
            </profile_COMMON>
        </effect>
    </library_effects>
    <library_geometries>
        <geometry id="cmn_obj_pulleystandA-geometry" name="cmn_obj_pulleystandA-geometry">
            <mesh>
                <source id="cmn_obj_pulleystandA-geometry-position">
                    <float_array id="cmn_obj_pulleystandA-geometry-position-array" count="1182">-1.23367 0.128118 0.115705 -1.24455 0.0770874 -0.114398 -1.23367 0.128127 -0.114398 -1.24455 0.0770874 0.115705 -1.06043 -0.0009056 -0.114398 -1.06015 -1.74882 0.115713 -1.06043 -0.0009056 0.115705 -1.06015 -1.74882 -0.114406 -1.24905 -0.000905 -0.114398 -1.06015 -1.74882 -0.114406 -1.06043 -0.0009056 -0.114398 -1.24934 -1.74882 -0.114406 -1.06043 -0.0009056 0.115705 -1.24934 -1.74882 0.115713 -1.24905 -0.000905 0.115705 -1.06015 -1.74882 0.115713 -1.05259 0.0770874 -0.114398 -1.23367 0.128127 -0.114398 -1.24455 0.0770874 -0.114398 -1.03823 0.128045 -0.114398 -1.03273 -1.74882 0.110225 -1.0333 -2.13894 -0.109384 -1.0333 -2.13894 0.110691 -1.0333 -2.13894 -0.109384 -1.03273 -1.74882 0.110225 -1.03273 -1.74882 -0.108917 -1.25838 -1.74882 0.138702 -1.05158 -2.13894 0.139289 -1.2579 -2.13894 0.139289 -1.0511 -1.74882 0.138702 -1.27676 -1.74882 -0.108917 -1.27619 -2.13894 0.110691 -1.27619 -2.13894 -0.109384 -1.27676 -1.74882 0.110225 -1.0511 -1.74882 -0.137394 -1.2579 -2.13894 -0.137982 -1.05158 -2.13894 -0.137982 -1.2579 -2.13894 -0.137982 -1.0511 -1.74882 -0.137394 -1.25838 -1.74882 -0.137394 -1.24934 -1.74882 -0.114406 -1.24905 -0.000905 0.115705 -1.24934 -1.74882 0.115713 -1.24905 -0.000905 -0.114398 -1.23367 0.128118 0.115705 -1.05259 0.0770874 0.115705 -1.24455 0.0770874 0.115705 -1.03828 0.127983 0.115705 -0.86833 0.254116 0.115705 0.179595 0.179328 0.115705 -0.987756 0.179328 0.115705 0.202116 0.254116 0.115705 -0.987756 0.179328 -0.114398 0.202116 0.254116 -0.114398 -0.86833 0.254116 -0.114398 0.179595 0.179328 -0.114398 0.179595 0.179328 -0.114398 0.202116 0.254116 0.115705 0.202116 0.254116 -0.114398 0.202116 0.254116 0.115705 0.179595 0.179328 -0.114398 0.179595 0.179328 0.115705 -0.987756 0.179328 -0.114398 0.179595 0.179328 0.115705 0.179595 0.179328 -0.114398 -0.987756 0.179328 0.115705 0.122567 0.184344 0.103207 0.174023 -0.0462118 0.103207 0.122567 -0.0462118 0.103207 0.174023 -0.0462118 0.103207 0.122567 0.184344 0.103207 0.174023 0.184344 0.103207 0.174023 -0.0462118 0.103207 0.122567 -0.106812 0.0798881 0.122567 -0.0462118 0.103207 0.122567 -0.106812 0.0798881 0.174023 -0.0462118 0.103207 0.174023 -0.106812 0.0798881 0.174023 -0.106812 0.0001463 0.122567 -0.106812 -0.0795956 0.122567 -0.106812 0.0001463 0.122567 -0.106812 -0.0795956 0.174023 -0.106812 0.0001463 0.174023 -0.106812 -0.0795956 0.122567 0.184344 -0.102915 0.174023 -0.0462118 -0.102915 0.174023 0.184344 -0.102915 0.174023 -0.0462118 -0.102915 0.122567 0.184344 -0.102915 0.122567 -0.0462118 -0.102915 0.122567 0.184344 0.103207 0.122567 -0.0463501 0.0001463 0.122567 0.184344 0.0001463 0.122567 -0.0463501 0.0001463 0.122567 0.184344 0.103207 0.122567 -0.0462118 0.103207 0.174023 -0.0462118 -0.102915 0.122567 -0.106812 -0.0795956 0.174023 -0.106812 -0.0795956 0.122567 -0.106812 -0.0795956 0.174023 -0.0462118 -0.102915 0.122567 -0.0462118 -0.102915 0.174023 0.184344 -0.102915 0.174023 -0.0462118 0.0001463 0.174023 0.184344 0.0001463 0.174023 -0.0462118 -0.102915 0.174023 -0.106812 0.0798881 0.174023 -0.0462118 0.0001463 0.174023 -0.106812 0.0001463 0.174023 -0.0462118 0.103207 0.122567 -0.106812 -0.0795956 0.122567 -0.0463501 0.0001463 0.122567 -0.106812 0.0001463 0.122567 -0.0463501 0.0001463 0.122567 -0.106812 -0.0795956 0.122567 -0.0462118 -0.102915 0.174023 -0.106812 0.0798881 0.122567 -0.106812 0.0798881 0.122567 0.184344 -0.102915 0.122567 -0.0463501 0.0001463 0.122567 0.184344 -0.102915 0.122567 0.184344 0.0001463 0.174023 0.184344 0.103207 0.174023 -0.0462118 0.0001463 0.174023 0.184344 0.103207 0.174023 0.184344 0.0001463 0.174023 -0.106812 -0.0795956 0.174023 -0.106812 0.0001463 0.122567 -0.106812 0.0798881 0.122567 -0.0463501 0.0001463 0.122567 -0.106812 0.0798881 0.122567 -0.106812 0.0001463 -1.05259 0.0770874 0.115705 -1.03823 0.128045 -0.114398 -1.05259 0.0770874 -0.114398 -1.03828 0.127983 0.115705 -1.1654 0.254116 0.115705 -1.2115 0.179328 -0.114398 -1.1654 0.254116 -0.114398 -1.2115 0.179328 0.115705 -1.06043 -0.0009056 -0.114398 -1.24905 -0.000905 -0.114398 -1.1654 0.254116 -0.114398 -0.987756 0.179328 -0.114398 -0.86833 0.254116 -0.114398 -1.2115 0.179328 -0.114398 -1.06043 -0.0009056 0.115705 -1.24905 -0.000905 0.115705 -0.987756 0.179328 0.115705 -1.1654 0.254116 0.115705 -0.86833 0.254116 0.115705 -1.2115 0.179328 0.115705 -1.2115 0.179328 -0.114398 -0.987756 0.179328 -0.114398 -1.2115 0.179328 0.115705 -0.987756 0.179328 0.115705 -0.17302 0.184344 0.103207 -0.121564 -0.0462118 0.103207 -0.17302 -0.0462118 0.103207 -0.121564 -0.0462118 0.103207 -0.17302 0.184344 0.103207 -0.121564 0.184344 0.103207 -0.121564 -0.0462118 0.103207 -0.17302 -0.106812 0.0798881 -0.17302 -0.0462118 0.103207 -0.17302 -0.106812 0.0798881 -0.121564 -0.0462118 0.103207 -0.121564 -0.106812 0.0798881 -0.121564 -0.106812 0.0001463 -0.17302 -0.106812 -0.0795956 -0.17302 -0.106812 0.0001463 -0.17302 -0.106812 -0.0795956 -0.121564 -0.106812 0.0001463 -0.121564 -0.106812 -0.0795956 -0.17302 0.184344 -0.102915 -0.121564 -0.0462118 -0.102915 -0.121564 0.184344 -0.102915 -0.121564 -0.0462118 -0.102915 -0.17302 0.184344 -0.102915 -0.17302 -0.0462118 -0.102915 -0.17302 0.184344 0.103207 -0.17302 -0.0463501 0.0001463 -0.17302 0.184344 0.0001463 -0.17302 -0.0463501 0.0001463 -0.17302 0.184344 0.103207 -0.17302 -0.0462118 0.103207 -0.121564 -0.0462118 -0.102915 -0.17302 -0.106812 -0.0795956 -0.121564 -0.106812 -0.0795956 -0.17302 -0.106812 -0.0795956 -0.121564 -0.0462118 -0.102915 -0.17302 -0.0462118 -0.102915 -0.121564 0.184344 -0.102915 -0.121564 -0.0462118 0.0001463 -0.121564 0.184344 0.0001463 -0.121564 -0.0462118 -0.102915 -0.121564 -0.106812 0.0798881 -0.121564 -0.0462118 0.0001463 -0.121564 -0.106812 0.0001463 -0.121564 -0.0462118 0.103207 -0.17302 -0.106812 -0.0795956 -0.17302 -0.0463501 0.0001463 -0.17302 -0.106812 0.0001463 -0.17302 -0.0463501 0.0001463 -0.17302 -0.106812 -0.0795956 -0.17302 -0.0462118 -0.102915 -0.121564 -0.106812 0.0798881 -0.17302 -0.106812 0.0798881 -0.17302 0.184344 -0.102915 -0.17302 -0.0463501 0.0001463 -0.17302 0.184344 -0.102915 -0.17302 0.184344 0.0001463 -0.121564 0.184344 0.103207 -0.121564 -0.0462118 0.0001463 -0.121564 0.184344 0.103207 -0.121564 0.184344 0.0001463 -0.121564 -0.106812 -0.0795956 -0.121564 -0.106812 0.0001463 -0.17302 -0.106812 0.0798881 -0.17302 -0.0463501 0.0001463 -0.17302 -0.106812 0.0798881 -0.17302 -0.106812 0.0001463 -1.03394 -2.15647 0.111218 -1.0333 -2.13894 -0.109384 -1.03394 -2.15647 -0.109911 -1.0333 -2.13894 -0.109384 -1.03394 -2.15647 0.111218 -1.0333 -2.13894 0.110691 -1.25735 -2.15647 0.139953 -1.05158 -2.13894 0.139289 -1.05213 -2.15647 0.139952 -1.05158 -2.13894 0.139289 -1.25735 -2.15647 0.139953 -1.2579 -2.13894 0.139289 -1.27555 -2.15647 -0.109911 -1.27619 -2.13894 0.110691 -1.27555 -2.15647 0.111218 -1.27619 -2.13894 0.110691 -1.27555 -2.15647 -0.109911 -1.27619 -2.13894 -0.109384 -1.05213 -2.15647 -0.138645 -1.2579 -2.13894 -0.137982 -1.25735 -2.15647 -0.138645 -1.2579 -2.13894 -0.137982 -1.05213 -2.15647 -0.138645 -1.05158 -2.13894 -0.137982 -1.06015 -1.74882 -0.114406 -1.03273 -1.74882 0.110225 -1.06015 -1.74882 0.115713 -1.03273 -1.74882 -0.108917 -1.06015 -1.74882 0.115713 -1.25838 -1.74882 0.138702 -1.24934 -1.74882 0.115713 -1.0511 -1.74882 0.138702 -1.24934 -1.74882 0.115713 -1.27676 -1.74882 -0.108917 -1.24934 -1.74882 -0.114406 -1.27676 -1.74882 0.110225 -1.24934 -1.74882 -0.114406 -1.0511 -1.74882 -0.137394 -1.06015 -1.74882 -0.114406 -1.25838 -1.74882 -0.137394 -1.06015 -1.74882 -0.114406 -1.0511 -1.74882 -0.137394 -1.03273 -1.74882 -0.108917 -1.06015 -1.74882 0.115713 -1.03273 -1.74882 0.110225 -1.0511 -1.74882 0.138702 -1.24934 -1.74882 0.115713 -1.25838 -1.74882 0.138702 -1.27676 -1.74882 0.110225 -1.24934 -1.74882 -0.114406 -1.27676 -1.74882 -0.108917 -1.25838 -1.74882 -0.137394 -1.03273 -1.74882 -0.108917 -1.05158 -2.13894 -0.137982 -1.0333 -2.13894 -0.109384 -1.05158 -2.13894 -0.137982 -1.03273 -1.74882 -0.108917 -1.0511 -1.74882 -0.137394 -1.0511 -1.74882 0.138702 -1.0333 -2.13894 0.110691 -1.05158 -2.13894 0.139289 -1.0333 -2.13894 0.110691 -1.0511 -1.74882 0.138702 -1.03273 -1.74882 0.110225 -1.27676 -1.74882 0.110225 -1.2579 -2.13894 0.139289 -1.27619 -2.13894 0.110691 -1.2579 -2.13894 0.139289 -1.27676 -1.74882 0.110225 -1.25838 -1.74882 0.138702 -1.25838 -1.74882 -0.137394 -1.27619 -2.13894 -0.109384 -1.2579 -2.13894 -0.137982 -1.27619 -2.13894 -0.109384 -1.25838 -1.74882 -0.137394 -1.27676 -1.74882 -0.108917 -1.18414 0.293868 0.136186 -1.10901 0.353803 -0.0986535 -1.10901 0.353803 0.105523 -1.18414 0.293868 -0.139074 -1.10901 0.353803 0.105523 0.172843 0.374132 0.0718112 0.231116 0.353803 0.105523 0.172843 0.374132 0.0718112 -1.10901 0.353803 0.105523 -1.05672 0.374132 0.0718112 0.231116 0.353803 -0.0986536 -1.05672 0.374132 -0.0649419 -1.10901 0.353803 -0.0986535 0.172843 0.374132 -0.064942 0.284602 0.293868 -0.139074 0.231116 0.353803 0.105523 0.231116 0.353803 -0.0986536 0.284602 0.293868 0.136186 0.172843 0.374132 -0.064942 -1.05672 0.374132 0.0718112 -1.05672 0.374132 -0.0649419 0.172843 0.374132 0.0718112 -1.05672 0.374132 0.0718112 -1.10901 0.353803 -0.0986535 -1.05672 0.374132 -0.0649419 -1.10901 0.353803 0.105523 -1.18414 0.293868 0.136186 0.231116 0.353803 0.105523 0.284602 0.293868 0.136186 -1.10901 0.353803 0.105523 0.284602 0.293868 -0.139074 -1.10901 0.353803 -0.0986535 -1.18414 0.293868 -0.139074 -1.10901 0.353803 -0.0986535 0.284602 0.293868 -0.139074 0.231116 0.353803 -0.0986536 0.172843 0.374132 -0.064942 0.231116 0.353803 0.105523 0.172843 0.374132 0.0718112 0.231116 0.353803 0.105523 0.172843 0.374132 -0.064942 0.231116 0.353803 -0.0986536 0.284602 0.293868 0.136186 -1.18414 0.25355 0.136186 -1.18414 0.293868 0.136186 0.284602 0.25355 0.136186 -1.18414 0.293868 -0.139074 0.284602 0.25355 -0.139074 0.284602 0.293868 -0.139074 -1.18414 0.25355 -0.139074 0.284602 0.25355 -0.139074 0.284602 0.293868 0.136186 0.284602 0.293868 -0.139074 0.284602 0.25355 0.136186 -1.18414 0.25355 0.136186 -1.18414 0.293868 -0.139074 -1.18414 0.293868 0.136186 -1.18414 0.25355 -0.139074 -1.18414 0.25355 -0.139074 0.284602 0.25355 0.136186 0.284602 0.25355 -0.139074 -1.18414 0.25355 0.136186 -0.143031 0.0003658 -0.0278777 0.143031 0.0304586 -0.0001737 -0.143031 0.0304586 -0.0001737 0.143031 0.0003658 -0.0278777 -0.143031 0.0304586 -0.0001737 0.143031 0.0003658 0.0275303 -0.143031 0.0003658 0.0275303 0.143031 0.0304586 -0.0001737 0.143031 -0.0297268 -0.0001737 -0.143031 -0.0297268 -0.0001737 -1.03394 -2.15647 -0.109911 -1.05158 -2.13894 -0.137982 -1.05213 -2.15647 -0.138645 -1.05158 -2.13894 -0.137982 -1.03394 -2.15647 -0.109911 -1.0333 -2.13894 -0.109384 -1.05213 -2.15647 0.139952 -1.0333 -2.13894 0.110691 -1.03394 -2.15647 0.111218 -1.0333 -2.13894 0.110691 -1.05213 -2.15647 0.139952 -1.05158 -2.13894 0.139289 -1.27555 -2.15647 0.111218 -1.2579 -2.13894 0.139289 -1.25735 -2.15647 0.139953 -1.2579 -2.13894 0.139289 -1.27555 -2.15647 0.111218 -1.27619 -2.13894 0.110691 -1.25735 -2.15647 -0.138645 -1.27619 -2.13894 -0.109384 -1.27555 -2.15647 -0.109911 -1.27619 -2.13894 -0.109384 -1.25735 -2.15647 -0.138645 -1.2579 -2.13894 -0.137982 </float_array>
                    <technique_common>
                        <accessor source="#cmn_obj_pulleystandA-geometry-position-array" count="394" stride="3">
                            <param name="X" type="float" />
                            <param name="Y" type="float" />
                            <param name="Z" type="float" />
                        </accessor>
                    </technique_common>
                </source>
                <source id="cmn_obj_pulleystandA-geometry-normal">
                    <float_array id="cmn_obj_pulleystandA-geometry-normal-array" count="231">-0.952552 0.304377 8e-006 -0.991058 0.133429 3e-006 -0.952547 0.304392 5e-006 -0.991056 0.133444 0 0.99875 -0.04998 0 1 0.000161 -1e-006 0 2e-006 -1 0 5e-006 -1 1e-006 2e-006 1 0 5e-006 1 0 0 -1 0.999999 -0.001458 0 0 0.001506 0.999999 -0.999999 -0.001458 0 0 0.001506 -0.999999 -1 0.000163 0 -0.999582 0.028905 0 1e-006 1e-006 1 1e-006 0 1 0 0 1 0 -1e-006 -1 0.957526 -0.288347 0 0.386347 -0.922354 -1.8e-005 0 -1 0 0.386395 -0.922333 0 0 -1e-006 1 2e-006 0 1 0 -0.359136 0.933285 -1 0 0 0 -0.359136 -0.933285 1 0 0 -1 0 1e-006 0.982538 -0.186063 5.5e-005 0.864789 -0.502135 -1.2e-005 0.982494 -0.186296 0 0.864988 -0.501792 6.2e-005 -0.851234 0.524786 0 -0.886747 0.462255 0 -0.886759 0.462232 6e-006 0 1e-006 1 0.99933 -0.036605 0 1e-006 0.037811 0.999285 0 0.037815 0.999285 -0.999329 -0.036621 0 -0.999329 -0.036626 0 0 0.03782 -0.999285 0 0.037822 -0.999285 0 1 0 0.842452 -0.000584 -0.538771 0.840261 -0.000224 -0.542183 0.84245 -0.000232 0.538774 0.84026 -0.000577 0.542184 -0.842444 -0.000585 0.538784 -0.840249 -0.000224 0.5422 -0.842446 -0.000232 -0.538781 -0.840252 -0.000577 -0.542195 -0.623598 0.781745 0 0 0.856352 0.516393 0 0.856352 0.516393 0 0.856353 -0.516391 0.746105 0.665828 0 -0.362321 0.932053 0 0 0.455464 0.890254 0 0.559138 -0.829075 0 0.559138 -0.829074 0.329385 0.944196 0 0.329384 0.944196 0 0 -2e-006 -1 0 -2e-006 1 0.844885 -0.006046 -0.534914 0.842362 -0.01467 -0.538713 0.844808 -0.014883 0.534862 0.842436 -0.00582 0.538765 -0.84488 -0.006053 0.534922 -0.842353 -0.014689 0.538726 -0.844804 -0.014895 -0.534869 -0.842432 -0.005833 -0.538772 </float_array>
                    <technique_common>
                        <accessor source="#cmn_obj_pulleystandA-geometry-normal-array" count="77" stride="3">
                            <param name="X" type="float" />
                            <param name="Y" type="float" />
                            <param name="Z" type="float" />
                        </accessor>
                    </technique_common>
                </source>
                <source id="cmn_obj_pulleystandA-geometry-uv">
                    <float_array id="cmn_obj_pulleystandA-geometry-uv-array" count="272">1.99288 2.18775 1.70261 2.14973 1.70261 2.18775 1.99288 2.14973 1.99393 3.40002 1.70366 4.41378 1.70366 3.40002 1.99393 4.41378 1.99364 0.990878 1.70336 0.028454 1.70336 0.990879 1.99364 0.028454 1.70336 1.03111 1.99364 1.06884 1.99364 1.03111 1.70336 1.06884 0.004862 0.574423 0.3711 0.16694 0.004861 0.16694 0.3711 0.574423 1.70261 1.11762 1.99288 2.08005 1.99399 1.17629 1.70261 2.08005 -0.203899 -0.989968 -0.002538 0.224069 -0.002538 -1.11586 -0.203899 0.24781 -0.3036 -0.247086 -0.087648 0.966951 -0.087648 -0.37298 -0.3036 0.990692 -0.002538 0.114162 -0.203899 0.281508 -0.203899 0.137397 -0.002538 0.281508 1.99393 3.25218 1.70366 2.31049 1.99393 2.31049 1.70366 3.25218 0.808203 -0.989941 0.882069 -0.659126 0.808203 -0.659125 0.882069 -0.989941 0.808203 -0.488336 0.882069 -0.488336 0.882069 -0.229851 0.808203 0.028633 0.808203 -0.229851 0.882069 0.028633 0.808203 0.51353 0.882069 0.229005 0.882069 0.51353 0.808203 0.229005 0.559908 0.379475 0.686212 0.082453 0.686212 0.379475 0.559908 0.082453 0.606139 0.00597501 0.686212 0.00597501 1.70366 3.35624 1.99393 3.30962 1.99393 3.35624 1.70366 3.30967 1.99288 2.31205 1.70261 2.2213 1.70261 2.31205 1.99288 2.2213 1.70336 0.992938 1.99364 0.992938 0.683717 0.754398 0.594767 0.534711 0.683717 0.389677 0.592213 0.809963 0.496156 0.19449 0.37607 0.4828 0.37607 0.00560403 0.496156 0.555723 1.99474 1.17459 1.70336 1.11614 1.70336 1.1166 1.99474 1.17548 0.004861 0.021921 0.3711 0.037697 0.3711 0.021921 0.004861 0.037697 0.225033 0.253808 0.073926 0.601034 0.225033 0.52942 0.073926 0.182193 0.143926 0.120481 0.143926 0.662747 0.799104 0.569361 0.903485 0.303241 0.799104 0.303241 0.903485 0.569361 1.64558 0.923795 1.54386 0.541148 1.54386 0.896488 1.64558 0.533999 1.44657 -0.944443 1.54386 -0.979685 1.44657 0.54697 1.54385 -0.982602 1.44655 -0.94351 1.50247 -0.361811 1.4481 0.862847 1.50247 0.862847 1.4481 -0.361811 1.44657 0.871716 1.64558 -1.00257 1.64558 -1.00048 1.44657 0.873091 1.54386 0.895989 1.69804 0.533999 1.69804 -1.00257 1.69804 -1.00048 1.69804 0.923796 1.69249 1.91357 1.65186 0.988352 1.69283 0.988352 1.65124 1.91357 0.756848 0.250655 0.761592 0.748219 0.761592 0.250655 0.756848 0.748219 0.742615 0.250655 0.747359 0.748219 0.747359 0.250655 0.742615 0.748219 0.752103 0.748219 0.752103 0.250655 0.799103 0.00276601 0.903485 0.03712 0.903485 0.00276601 0.799103 0.03712 </float_array>
                    <technique_common>
                        <accessor source="#cmn_obj_pulleystandA-geometry-uv-array" count="136" stride="2">
                            <param name="S" type="float" />
                            <param name="T" type="float" />
                        </accessor>
                    </technique_common>
                </source>
                <vertices id="cmn_obj_pulleystandA-geometry-vertex">
                    <input semantic="POSITION" source="#cmn_obj_pulleystandA-geometry-position" />
                </vertices>
                <triangles material="cmn_obj_pulley_HD_pulley" count="124">
                    <input semantic="VERTEX" source="#cmn_obj_pulleystandA-geometry-vertex" offset="0" />
                    <input semantic="NORMAL" source="#cmn_obj_pulleystandA-geometry-normal" offset="1" />
                    <input semantic="TEXCOORD" source="#cmn_obj_pulleystandA-geometry-uv" offset="2" set="0" />
                    <p>22 11 18 21 11 17 20 11 16 25 11 19 24 11 16 23 11 17 36 14 18 35 14 17 34 14 16 39 14 19 38 14 16 37 14 17 58 21 34 57 21 33 56 21 32 61 21 35 60 21 32 59 21 33 68 25 42 67 25 41 66 25 40 71 26 43 70 26 40 69 26 41 74 27 42 73 27 44 72 27 41 77 27 45 76 27 41 75 27 44 83 23 49 82 23 46 81 23 47 86 10 52 85 10 51 84 10 50 89 10 53 88 10 50 87 10 51 92 28 56 91 28 55 90 28 54 98 29 49 97 29 47 96 29 51 101 29 53 100 29 51 99 29 47 112 28 59 111 28 55 110 28 58 121 28 56 120 28 54 119 28 55 125 30 56 124 30 54 123 30 55 131 31 59 130 31 58 129 31 55 158 25 42 157 25 41 156 25 40 161 26 43 160 26 40 159 26 41 164 27 42 163 27 44 162 27 41 167 27 45 166 27 41 165 27 44 173 23 49 172 23 46 171 23 47 176 10 52 175 10 51 174 10 50 179 10 53 178 10 50 177 10 51 182 28 56 181 28 55 180 28 54 188 29 49 187 29 47 186 29 51 191 29 53 190 29 51 189 29 47 202 28 59 201 28 55 200 28 58 211 28 56 210 28 54 209 28 55 215 30 56 214 30 54 213 30 55 221 31 59 220 31 58 219 31 55 224 40 84 223 40 83 222 40 82 227 40 85 226 40 82 225 40 83 230 41 84 229 41 83 228 41 82 233 42 85 232 42 82 231 42 83 236 43 84 235 43 83 234 43 82 239 44 85 238 44 82 237 44 83 242 45 84 241 45 83 240 45 82 245 46 85 244 46 82 243 46 83 4 4 4 5 5 5 7 5 7 5 5 5 4 4 4 6 4 6 134 34 62 6 4 6 4 4 4 6 4 6 134 34 62 132 32 60 133 33 61 132 32 60 134 34 62 132 32 60 133 33 61 135 35 63 62 22 36 135 35 63 133 33 61 135 35 63 62 22 36 65 24 39 62 22 36 65 24 39 62 22 36 65 24 39 62 22 36 63 23 37 64 23 38 63 23 37 62 22 36 9 7 9 8 6 8 10 6 10 8 6 8 9 7 9 11 7 11 13 9 9 12 8 8 14 8 10 12 8 8 13 9 9 15 9 11 27 12 17 26 12 16 28 12 18 26 12 16 27 12 17 29 12 19 31 13 17 30 13 16 32 13 18 30 13 16 31 13 17 33 13 19 41 16 21 40 15 20 42 15 22 40 15 20 41 16 21 43 16 23 3 3 3 43 16 23 41 16 21 43 16 23 3 3 3 1 1 1 0 0 0 1 1 1 3 3 3 1 1 1 0 0 0 2 2 2 139 38 67 2 2 2 0 0 0 2 2 2 139 38 67 137 37 65 136 36 64 137 37 65 139 38 67 137 37 65 136 36 64 138 36 66 49 19 25 48 19 24 50 19 26 48 19 24 49 19 25 51 19 27 53 20 29 52 20 28 54 20 30 52 20 28 53 20 29 55 20 31 78 23 46 80 23 48 79 23 47 80 23 48 78 23 46 80 23 48 116 23 45 80 23 48 78 23 46 80 23 48 116 23 45 117 23 44 93 28 55 95 28 57 94 28 54 95 28 57 93 28 55 128 28 58 103 30 55 102 30 54 104 30 56 102 30 54 103 30 55 105 30 57 103 30 55 105 30 57 103 30 55 105 30 57 103 30 55 126 30 58 127 30 59 126 30 58 103 30 55 107 30 55 106 30 58 108 30 59 106 30 58 107 30 55 109 30 57 122 30 54 109 30 57 107 30 55 113 28 55 115 28 57 114 28 58 115 28 57 113 28 55 118 28 54 18 10 14 140 6 68 141 6 69 140 6 68 18 10 14 16 10 12 17 10 13 16 10 12 18 10 14 16 10 12 17 10 13 19 10 15 152 10 78 19 10 15 17 10 13 19 10 15 152 10 78 153 20 79 143 20 71 142 10 70 144 20 72 142 10 70 143 20 71 145 10 73 146 8 69 46 18 12 147 8 68 46 18 12 146 8 69 46 18 12 45 18 14 46 18 12 146 8 69 46 18 12 45 18 14 44 17 15 47 19 13 44 17 15 45 18 14 44 17 15 47 19 13 154 39 80 155 19 81 154 39 80 47 19 13 149 19 75 148 19 74 150 19 76 148 19 74 149 19 75 151 39 77 168 23 46 170 23 48 169 23 47 170 23 48 168 23 46 170 23 48 206 23 45 170 23 48 168 23 46 170 23 48 206 23 45 207 23 44 183 28 55 185 28 57 184 28 54 185 28 57 183 28 55 218 28 58 193 30 55 192 30 54 194 30 56 192 30 54 193 30 55 195 30 57 193 30 55 195 30 57 193 30 55 195 30 57 193 30 55 216 30 58 217 30 59 216 30 58 193 30 55 197 30 55 196 30 58 198 30 59 196 30 58 197 30 55 199 30 57 212 30 54 199 30 57 197 30 55 203 28 55 205 28 57 204 28 58 205 28 57 203 28 55 208 28 54 </p>
                </triangles>
                <triangles material="cmn_obj_pulley_HD_pstand" count="65">
                    <input semantic="VERTEX" source="#cmn_obj_pulleystandA-geometry-vertex" offset="0" />
                    <input semantic="NORMAL" source="#cmn_obj_pulleystandA-geometry-normal" offset="1" />
                    <input semantic="TEXCOORD" source="#cmn_obj_pulleystandA-geometry-uv" offset="2" set="0" />
                    <p>264 47 89 263 47 90 262 47 86 267 47 91 266 47 87 265 47 88 270 47 89 269 47 90 268 47 86 273 47 91 272 47 87 271 47 88 276 48 94 275 48 93 274 48 92 279 49 95 278 49 92 277 49 93 282 50 94 281 50 93 280 50 92 285 51 95 284 51 92 283 51 93 288 52 94 287 52 93 286 52 92 291 53 95 290 53 92 289 53 93 294 54 94 293 54 93 292 54 92 297 55 95 296 55 92 295 55 93 304 57 101 303 57 100 302 57 97 307 58 102 306 58 97 305 58 100 330 63 99 329 63 97 328 63 111 333 64 101 332 64 111 331 64 97 336 65 102 335 65 97 334 65 112 339 66 113 338 66 112 337 66 97 372 69 134 371 69 133 370 69 132 375 70 135 374 70 132 373 70 133 378 71 134 377 71 133 376 71 132 381 72 135 380 72 132 379 72 133 384 73 134 383 73 133 382 73 132 387 74 135 386 74 132 385 74 133 390 75 134 389 75 133 388 75 132 393 76 135 392 76 132 391 76 133 247 47 87 246 47 86 248 47 88 246 47 86 247 47 87 249 47 89 251 47 87 250 47 86 252 47 88 250 47 86 251 47 87 253 47 89 255 47 87 254 47 86 256 47 88 254 47 86 255 47 87 257 47 89 259 47 87 258 47 86 260 47 88 258 47 86 259 47 87 261 47 89 299 56 97 298 56 96 300 56 98 298 56 96 299 56 97 301 56 99 309 59 102 308 59 103 310 59 97 308 59 103 309 59 102 311 59 104 313 60 97 312 60 96 314 60 98 312 60 96 313 60 97 315 60 99 317 47 106 316 47 105 318 47 107 316 47 105 317 47 106 319 47 108 321 61 97 320 61 109 322 61 102 320 61 109 321 61 97 323 61 98 325 62 101 324 62 99 326 62 110 324 62 99 325 62 101 327 62 97 341 19 114 340 19 110 342 19 99 340 19 110 341 19 114 343 19 115 345 10 116 344 10 99 346 10 111 344 10 99 345 10 116 347 10 114 349 30 99 348 30 117 350 30 96 348 30 117 349 30 99 351 30 114 353 28 99 352 28 117 354 28 96 352 28 117 353 28 99 355 28 114 357 23 119 356 23 118 358 23 120 356 23 118 357 23 119 359 23 121 361 47 123 360 67 122 362 47 124 360 67 122 361 47 123 360 67 122 363 67 125 360 67 122 361 47 123 360 67 122 363 67 125 369 23 131 368 23 130 369 23 131 363 67 125 369 23 131 368 23 130 366 68 128 365 68 127 366 68 128 368 23 130 366 68 128 365 68 127 364 47 126 367 47 129 364 47 126 365 68 127 </p>
                </triangles>
            </mesh>
        </geometry>
    </library_geometries>
    <library_controllers>
        <controller id="cmn_obj_pulleystandA-controller">
            <skin source="#cmn_obj_pulleystandA-geometry">
                <bind_shape_matrix>1.0 0.0 0.0 0.0 0.0 1.0 0.0 0.0 0.0 0.0 1.0 0.0 0.0 0.0 0.0 1.0</bind_shape_matrix>
                <source id="cmn_obj_pulleystandA-controller-Joints">
                    <Name_array id="cmn_obj_pulleystandA-controller-Joints-array" count="2">cmn_obj_pulleystandA post_point </Name_array>
                    <technique_common>
                        <accessor source="#cmn_obj_pulleystandA-controller-Joints-array" count="2">
                            <param type="name" />
                        </accessor>
                    </technique_common>
                </source>
                <source id="cmn_obj_pulleystandA-controller-Matrices">
                    <float_array id="cmn_obj_pulleystandA-controller-Matrices-array" count="32">1 -0 0 -0 -0 1 -0 0 0 -0 1 -0 -0 0 -0 1 1 -0 0 1.15474 -0 1 -0 2.14771 0 -0 1 -0.0006536 -0 0 -0 1 </float_array>
                    <technique_common>
                        <accessor source="#cmn_obj_pulleystandA-controller-Matrices-array" count="2" stride="16">
                            <param type="float4x4" />
                        </accessor>
                    </technique_common>
                </source>
                <source id="cmn_obj_pulleystandA-controller-Weights">
                    <float_array id="cmn_obj_pulleystandA-controller-Weights-array" count="1">1 </float_array>
                    <technique_common>
                        <accessor source="#cmn_obj_pulleystandA-controller-Weights-array" count="1">
                            <param type="float" />
                        </accessor>
                    </technique_common>
                </source>
                <joints>
                    <input semantic="JOINT" source="#cmn_obj_pulleystandA-controller-Joints" />
                    <input semantic="INV_BIND_MATRIX" source="#cmn_obj_pulleystandA-controller-Matrices" />
                </joints>
                <vertex_weights count="394">
                    <input semantic="JOINT" offset="0" source="#cmn_obj_pulleystandA-controller-Joints" />
                    <input semantic="WEIGHT" offset="1" source="#cmn_obj_pulleystandA-controller-Weights" />
                    <vcount>1 1 1 1 1 1 1 1 1 1 1 1 1 1 1 1 1 1 1 1 1 1 1 1 1 1 1 1 1 1 1 1 1 1 1 1 1 1 1 1 1 1 1 1 1 1 1 1 1 1 1 1 1 1 1 1 1 1 1 1 1 1 1 1 1 1 1 1 1 1 1 1 1 1 1 1 1 1 1 1 1 1 1 1 1 1 1 1 1 1 1 1 1 1 1 1 1 1 1 1 1 1 1 1 1 1 1 1 1 1 1 1 1 1 1 1 1 1 1 1 1 1 1 1 1 1 1 1 1 1 1 1 1 1 1 1 1 1 1 1 1 1 1 1 1 1 1 1 1 1 1 1 1 1 1 1 1 1 1 1 1 1 1 1 1 1 1 1 1 1 1 1 1 1 1 1 1 1 1 1 1 1 1 1 1 1 1 1 1 1 1 1 1 1 1 1 1 1 1 1 1 1 1 1 1 1 1 1 1 1 1 1 1 1 1 1 1 1 1 1 1 1 1 1 1 1 1 1 1 1 1 1 1 1 1 1 1 1 1 1 1 1 1 1 1 1 1 1 1 1 1 1 1 1 1 1 1 1 1 1 1 1 1 1 1 1 1 1 1 1 1 1 1 1 1 1 1 1 1 1 1 1 1 1 1 1 1 1 1 1 1 1 1 1 1 1 1 1 1 1 1 1 1 1 1 1 1 1 1 1 1 1 1 1 1 1 1 1 1 1 1 1 1 1 1 1 1 1 1 1 1 1 1 1 1 1 1 1 1 1 1 1 1 1 1 1 1 1 1 1 1 1 1 1 1 1 1 1 1 1 1 1 1 1 1 1 1 1 1 1 1 1 1 1 1 1 1 1 1 1 1 1 1 1 1 1 1 1 1 1 1 1 1 1 </vcount>
                    <v>0 0 0 0 0 0 0 0 0 0 0 0 0 0 0 0 0 0 0 0 0 0 0 0 0 0 0 0 0 0 0 0 0 0 0 0 0 0 0 0 0 0 0 0 0 0 0 0 0 0 0 0 0 0 0 0 0 0 0 0 0 0 0 0 0 0 0 0 0 0 0 0 0 0 0 0 0 0 0 0 0 0 0 0 0 0 0 0 0 0 0 0 0 0 0 0 0 0 0 0 0 0 0 0 0 0 0 0 0 0 0 0 0 0 0 0 0 0 0 0 0 0 0 0 0 0 0 0 0 0 0 0 0 0 0 0 0 0 0 0 0 0 0 0 0 0 0 0 0 0 0 0 0 0 0 0 0 0 0 0 0 0 0 0 0 0 0 0 0 0 0 0 0 0 0 0 0 0 0 0 0 0 0 0 0 0 0 0 0 0 0 0 0 0 0 0 0 0 0 0 0 0 0 0 0 0 0 0 0 0 0 0 0 0 0 0 0 0 0 0 0 0 0 0 0 0 0 0 0 0 0 0 0 0 0 0 0 0 0 0 0 0 0 0 0 0 0 0 0 0 0 0 0 0 0 0 0 0 0 0 0 0 0 0 0 0 0 0 0 0 0 0 0 0 0 0 0 0 0 0 0 0 0 0 0 0 0 0 0 0 0 0 0 0 0 0 0 0 0 0 0 0 0 0 0 0 0 0 0 0 0 0 0 0 0 0 0 0 0 0 0 0 0 0 0 0 0 0 0 0 0 0 0 0 0 0 0 0 0 0 0 0 0 0 0 0 0 0 0 0 0 0 0 0 0 0 0 0 0 0 0 0 0 0 0 0 0 0 0 0 0 0 0 0 0 0 0 0 0 0 0 0 0 0 0 0 0 0 0 0 0 0 0 0 0 0 0 0 0 0 0 0 0 0 0 0 0 0 0 0 0 0 0 0 0 0 0 0 0 0 0 0 0 0 0 0 0 0 0 0 0 0 0 0 0 0 0 0 0 0 0 0 0 0 0 0 0 0 0 0 0 0 0 0 0 0 0 0 0 0 0 0 0 0 0 0 0 0 0 0 0 0 0 0 0 0 0 0 0 0 0 0 0 0 0 0 0 0 0 0 0 0 0 0 0 0 0 0 0 0 0 0 0 0 0 0 0 0 0 0 0 0 0 0 0 0 0 0 0 0 0 0 0 0 0 0 0 0 0 0 0 0 0 0 0 0 0 0 0 0 0 0 0 0 0 0 0 0 0 0 0 0 0 0 0 0 0 0 0 0 0 0 0 0 0 0 0 0 0 0 0 0 0 0 0 0 0 0 0 0 0 0 0 0 0 0 0 0 0 0 0 0 0 0 0 0 0 0 0 0 0 0 0 0 0 0 0 0 0 0 0 0 0 0 0 0 0 0 0 0 0 0 0 0 0 0 0 0 0 0 0 0 0 0 0 0 0 0 0 0 0 0 0 0 0 0 0 0 0 0 0 0 0 0 0 0 0 0 0 0 0 0 0 0 0 0 0 0 0 0 0 0 0 0 0 0 0 0 0 0 0 0 0 0 0 0 0 0 0 0 0 0 0 0 0 0 0 0 0 0 0 0 0 0 0 0 0 0 0 0 0 0 0 0 0 0 0 0 0 0 0 0 0 0 0 0 0 0 0 0 0 0 0 0 0 0 0 0 0 0 0 0 0 0 0 0 0 0 0 0 0 0 0 0 0 0 0 0 0 0 0 0 0 0 0 0 0 0 0 0 0 0 0 0 0 0 0 0 0 0 0 0 0 0 0 0 0 0 </v>
                </vertex_weights>
            </skin>
        </controller>
    </library_controllers>
    <library_visual_scenes>
        <visual_scene id="SonicGLvlScene" name="SonicGLvlScene">
            <node id="cmn_obj_pulleystandA" sid="cmn_obj_pulleystandA" name="cmn_obj_pulleystandA">
                <instance_controller url="#cmn_obj_pulleystandA-controller">
                    <bind_material>
                        <technique_common>
                            <instance_material symbol="cmn_obj_pulley_HD_pulley" target="#cmn_obj_pulley_HD_pulleyID" />
                            <instance_material symbol="cmn_obj_pulley_HD_pstand" target="#cmn_obj_pulley_HD_pstandID" />
                        </technique_common>
                    </bind_material>
                </instance_controller>
            </node>
            <node id="cmn_obj_pulleystandA" sid="cmn_obj_pulleystandA" name="cmn_obj_pulleystandA" type="JOINT">
                <matrix>1 0 0 -0 0 1 0 -0 0 0 1 -0 0 0 0 1 </matrix>
                <node id="post_point" sid="post_point" name="post_point" type="JOINT">
                    <matrix>1 0 0 -1.15474 0 1 0 -2.14771 0 0 1 0.0006536 0 0 0 1 </matrix>
                    <extra>
                        <technique profile="FCOLLADA">
                            <visibility>1.000000</visibility>
                        </technique>
                    </extra>
                </node>
                <extra>
                    <technique profile="FCOLLADA">
                        <visibility>1.000000</visibility>
                    </technique>
                </extra>
            </node>
        </visual_scene>
    </library_visual_scenes>
    <scene>
        <instance_visual_scene url="#SonicGLvlScene" />
    </scene>
</COLLADA>
