mtllib cmn_obj_pointmarkerR_SD.mtl

v -0.559082 6.028076 -1.349854
v -2.014404 0.000000 -0.834717
v -1.349609 6.028076 -0.559082
v -0.834229 0.000000 -2.014648
v 0.559082 6.028076 -1.349609
v 0.834717 0.000000 -2.014404
v 1.349854 6.028076 -0.559082
v 2.014648 0.000000 -0.834229
v 1.349609 6.028076 0.559082
v 2.014404 0.000000 0.834717
v 0.559082 6.028076 1.349854
v 0.834229 0.000000 2.014648
v -0.559082 6.028076 1.349609
v -0.834717 0.000000 2.014404
v -1.349854 6.028076 0.559082
v -2.014648 0.000000 0.834229
v -1.349609 6.028076 -0.559082
v -2.014404 0.000000 -0.834717
v -2.271240 1.441650 -0.602051
v -1.168701 5.888916 -0.602051
v -1.610840 1.133545 -0.602051
v -2.275879 5.826904 -0.602051
v -2.271240 1.441650 0.000000
v -2.275879 5.826904 0.000000
v -1.168701 5.888916 -0.602051
v -1.168701 5.888916 0.602051
v -2.275879 5.826904 0.602051
v 0.000000 6.250000 0.000000
v -0.538330 6.250000 -1.300049
v -1.300049 6.250000 -0.538574
v 0.538574 6.250000 -1.300049
v 1.300049 6.250000 -0.538330
v 1.300049 6.250000 0.538574
v 0.538330 6.250000 1.300049
v -0.538574 6.250000 1.300049
v -1.610840 1.133545 -0.602051
v -1.610840 1.133545 0.602051
v -2.275879 5.826904 0.000000
v -2.271240 1.441650 0.602051
v -2.275879 5.826904 0.602051
v -2.271240 1.441650 0.000000
v -1.610840 1.133545 0.602051
v -2.271240 1.441650 0.602051
v -1.168701 5.888916 0.602051
v -1.300049 6.250000 -0.538574
v -0.559082 6.028076 -1.349854
v -1.349609 6.028076 -0.559082
v -0.538330 6.250000 -1.300049
v 0.559082 6.028076 -1.349609
v 0.538574 6.250000 -1.300049
v 1.349854 6.028076 -0.559082
v 1.300049 6.250000 -0.538330
v 1.349609 6.028076 0.559082
v 1.300049 6.250000 0.538574
v 0.559082 6.028076 1.349854
v 0.538330 6.250000 1.300049
v -0.559082 6.028076 1.349609
v -0.538574 6.250000 1.300049
v -1.349854 6.028076 0.559082
v -1.300049 6.250000 0.538330
v -1.349609 6.028076 -0.559082
v -1.300049 6.250000 -0.538574
v -1.300049 6.250000 0.538330

vt 0.567902 0.942322
vt 0.469788 0.003296
vt 0.469788 0.942322
vt 0.567902 0.003296
vt 0.745178 0.942322
vt 0.745178 0.003296
vt 0.768921 0.942322
vt 0.768921 0.003296
vt 0.891022 0.942322
vt 0.891022 0.003296
vt 0.767883 0.942322
vt 0.767883 0.003296
vt 0.628967 0.942322
vt 0.628967 0.003296
vt 0.528473 0.942322
vt 0.528473 0.003296
vt 0.468750 0.942322
vt 0.468750 0.003296
vt 0.348389 0.029572
vt 0.450470 0.533630
vt 0.450470 0.029175
vt 0.348389 0.519012
vt 0.261627 0.029572
vt 0.261627 0.519012
vt 0.348389 0.556122
vt 0.348389 0.556122
vt 0.348389 0.519012
vt 0.116669 0.548126
vt 0.004669 0.254059
vt 0.232147 0.254059
vt 0.232147 0.254059
vt 0.004669 0.254059
vt 0.232147 0.254059
vt 0.004669 0.254059
vt 0.232147 0.254059
vt 0.348389 0.001892
vt 0.348389 0.001892
vt 0.261627 0.517578
vt 0.348389 0.028168
vt 0.348389 0.517578
vt 0.261627 0.028168
vt 0.450470 0.029175
vt 0.348389 0.029572
vt 0.450470 0.533630
vt 0.469788 0.997009
vt 0.567902 0.942322
vt 0.469788 0.942322
vt 0.567902 0.997009
vt 0.745178 0.942322
vt 0.745178 0.997009
vt 0.768921 0.942322
vt 0.768921 0.997009
vt 0.891022 0.942322
vt 0.891022 0.997009
vt 0.767883 0.942322
vt 0.767883 0.997009
vt 0.628967 0.942322
vt 0.628967 0.997009
vt 0.528473 0.942322
vt 0.528473 0.997009
vt 0.468750 0.942322
vt 0.468750 0.997009
vt 0.004669 0.254059

vn -0.379931 0.118526 -0.917390
vn -0.917337 0.118528 -0.380057
vn -0.917337 0.118528 -0.380057
vn -0.379931 0.118526 -0.917390
vn 0.380057 0.118528 -0.917337
vn 0.380057 0.118528 -0.917337
vn 0.917390 0.118526 -0.379931
vn 0.917390 0.118526 -0.379931
vn 0.917337 0.118528 0.380057
vn 0.917337 0.118528 0.380057
vn 0.379931 0.118526 0.917390
vn 0.379931 0.118526 0.917390
vn -0.380057 0.118528 0.917337
vn -0.380057 0.118528 0.917337
vn -0.917390 0.118526 0.379931
vn -0.917390 0.118526 0.379931
vn -0.917337 0.118528 -0.380057
vn -0.917337 0.118528 -0.380057
vn -0.672043 -0.428518 -0.603929
vn -0.041382 0.740115 -0.671206
vn -0.333254 -0.714177 -0.615543
vn -0.592043 0.559267 -0.580263
vn -0.843174 -0.537641 0.000000
vn -0.726932 0.686710 0.000000
vn -0.041382 0.740115 -0.671206
vn -0.041382 0.740115 0.671206
vn -0.592043 0.559267 0.580263
vn 0.000000 1.000000 0.000000
vn 0.000000 1.000000 0.000000
vn 0.000000 1.000000 0.000000
vn 0.000000 1.000000 0.000000
vn 0.000000 1.000000 0.000000
vn 0.000000 1.000000 0.000000
vn 0.000000 1.000000 0.000000
vn 0.000000 1.000000 0.000000
vn -0.333254 -0.714177 -0.615543
vn -0.333254 -0.714177 0.615543
vn -0.726932 0.686710 0.000000
vn -0.672043 -0.428518 0.603929
vn -0.592043 0.559267 0.580263
vn -0.843174 -0.537641 0.000000
vn -0.333254 -0.714177 0.615543
vn -0.672043 -0.428518 0.603929
vn -0.041382 0.740115 0.671206
vn -0.897908 0.235296 -0.372018
vn -0.371892 0.235294 -0.897961
vn -0.897908 0.235296 -0.372018
vn -0.371892 0.235294 -0.897961
vn 0.372018 0.235296 -0.897908
vn 0.372018 0.235296 -0.897908
vn 0.897961 0.235294 -0.371892
vn 0.897961 0.235294 -0.371892
vn 0.897908 0.235296 0.372018
vn 0.897908 0.235296 0.372018
vn 0.371892 0.235294 0.897961
vn 0.371892 0.235294 0.897961
vn -0.372018 0.235296 0.897908
vn -0.372018 0.235296 0.897908
vn -0.897961 0.235294 0.371892
vn -0.897961 0.235294 0.371892
vn -0.897908 0.235296 -0.372018
vn -0.897908 0.235296 -0.372018
vn 0.000000 1.000000 0.000000

g polygon0
s 1
usemtl mat1
f 1/1/1 2/2/2 3/3/3
f 1/1/1 4/4/4 2/2/2
f 5/5/5 4/4/4 1/1/1
f 5/5/5 6/6/6 4/4/4
f 7/7/7 6/6/6 5/5/5
f 7/7/7 8/8/8 6/6/6
f 9/9/9 8/8/8 7/7/7
f 9/9/9 10/10/10 8/8/8
f 11/11/11 10/10/10 9/9/9
f 11/11/11 12/12/12 10/10/10
f 13/13/13 12/12/12 11/11/11
f 13/13/13 14/14/14 12/12/12
f 15/15/15 14/14/14 13/13/13
f 15/15/15 16/16/16 14/14/14
f 17/17/17 16/16/16 15/15/15
f 17/17/17 18/18/18 16/16/16
f 19/19/19 20/20/20 21/21/21
f 19/19/19 22/22/22 20/20/20
f 23/23/23 22/22/22 19/19/19
f 23/23/23 24/24/24 22/22/22
f 24/24/24 25/25/25 22/22/22
f 24/24/24 26/26/26 25/25/25
f 27/27/27 26/26/26 24/24/24
f 28/28/28 29/29/29 30/30/30
f 28/28/28 31/31/31 29/29/29
f 32/32/32 31/31/31 28/28/28
f 28/28/28 33/33/33 32/32/32
f 28/28/28 34/34/34 33/33/33
f 35/35/35 34/34/34 28/28/28
f 36/36/36 23/23/23 19/19/19
f 36/36/36 37/37/37 23/23/23
f 38/38/38 39/39/39 40/40/40
f 38/38/38 41/41/41 39/39/39
f 42/42/42 27/27/27 43/43/43
f 42/42/42 44/44/44 27/27/27
f 45/45/45 46/46/46 47/47/47
f 45/45/45 48/48/48 46/46/46
f 48/48/48 49/49/49 46/46/46
f 48/48/48 50/50/50 49/49/49
f 50/50/50 51/51/51 49/49/49
f 50/50/50 52/52/52 51/51/51
f 52/52/52 53/53/53 51/51/51
f 52/52/52 54/54/54 53/53/53
f 54/54/54 55/55/55 53/53/53
f 54/54/54 56/56/56 55/55/55
f 56/56/56 57/57/57 55/55/55
f 56/56/56 58/58/58 57/57/57
f 58/58/58 59/59/59 57/57/57
f 58/58/58 60/60/60 59/59/59
f 61/61/61 60/60/60 62/62/62
f 61/61/61 59/59/59 60/60/60
f 28/28/28 63/63/63 35/35/35
f 28/28/28 30/30/30 63/63/63
f 23/23/23 37/37/37 43/43/43

v -2.298584 5.649414 -0.508545
v -2.294189 1.664063 0.000000
v -2.298584 5.649414 0.000000
v -2.294189 1.664063 -0.508545
v -2.298584 5.649414 0.000000
v -2.294189 1.664063 0.496094
v -2.298584 5.649414 0.496094
v -2.294189 1.664063 0.000000

vt 0.329651 0.497040
vt 0.261627 0.061737
vt 0.261627 0.497040
vt 0.329651 0.061737
vt 0.261627 0.495758
vt 0.329651 0.060455
vt 0.329651 0.495758
vt 0.261627 0.060455

vn 7924809334889683200000000000000000.000000 7840161470883427500000000000000000.000000 -1.#QNAN0
vn 7924809334889683200000000000000000.000000 7840161470883427500000000000000000.000000 -1.#QNAN0
vn 7924809334889683200000000000000000.000000 7840161470883427500000000000000000.000000 -1.#QNAN0
vn 7900660838543343300000000000000000.000000 0.000000 0.000000
vn 7924809334889683200000000000000000.000000 7840161470883427500000000000000000.000000 -1.#QNAN0
vn 7924809334889683200000000000000000.000000 7840161470883427500000000000000000.000000 -1.#QNAN0
vn 7924809334889683200000000000000000.000000 7840161470883427500000000000000000.000000 -1.#QNAN0
vn 7900660838543343300000000000000000.000000 0.000000 0.000000

g polygon1
s 1
usemtl mat2
f 64/64/64 65/65/65 66/66/66
f 64/64/64 67/67/67 65/65/65
f 68/68/68 69/69/69 70/70/70
f 68/68/68 71/71/71 69/69/69

v 0.838379 7.054374 0.973489
v 1.116821 6.893608 0.892069
v 0.968140 7.538383 0.973489
v 0.644775 6.421562 0.892069
v 0.484009 6.700004 0.973490
v 0.000000 6.248832 0.892069
v 0.000000 6.570243 0.973490
v -0.644775 6.421562 0.892069
v -0.484009 6.700004 0.973490
v -1.116821 6.893608 0.892069
v -0.838379 7.054374 0.973489
v -1.289551 7.538383 0.892068
v -0.968140 7.538383 0.973489
v -1.116821 8.183158 0.892068
v -0.838379 8.022513 0.973489
v -0.644775 8.655204 0.892068
v -0.484009 8.376884 0.973489
v 0.000000 8.827933 0.892068
v 0.000000 8.506522 0.973489
v 0.644775 8.655204 0.892068
v 0.484009 8.376884 0.973489
v 1.116821 8.183158 0.892068
v 0.838379 8.022513 0.973489
v 1.289551 7.538383 0.892068
v 0.968140 7.538382 -0.973776
v 1.289551 7.538382 -0.892356
v 0.838379 7.054373 -0.973776
v 1.116821 8.183158 -0.892356
v 0.838379 8.022513 -0.973777
v 0.644775 8.655204 -0.892356
v 0.484009 8.376884 -0.973777
v 0.000000 8.827933 -0.892356
v 0.000000 8.506522 -0.973777
v -0.644775 8.655204 -0.892356
v -0.484009 8.376884 -0.973777
v -1.116821 8.183158 -0.892356
v -0.838379 8.022513 -0.973777
v -1.289551 7.538382 -0.892356
v -0.968140 7.538382 -0.973776
v -1.116821 6.893607 -0.892355
v -0.838379 7.054373 -0.973776
v -0.644775 6.421561 -0.892355
v -0.484009 6.700003 -0.973776
v 0.000000 6.248831 -0.892355
v 0.000000 6.570242 -0.973776
v 0.644775 6.421561 -0.892355
v 0.484009 6.700003 -0.973776
v 1.116821 6.893607 -0.892355
v 1.116821 6.893608 0.892069
v 1.116821 6.893607 -0.892355
v 1.289551 7.538383 0.892068
v 0.644775 6.421561 -0.892355
v 0.644775 6.421562 0.892069
v 0.000000 6.248831 -0.892355
v 0.000000 6.248832 0.892069
v -0.644775 6.421561 -0.892355
v -0.644775 6.421562 0.892069
v -1.116821 6.893607 -0.892355
v -1.116821 6.893608 0.892069
v -1.289551 7.538382 -0.892356
v -1.289551 7.538383 0.892068
v -1.116821 8.183158 -0.892356
v -1.116821 8.183158 0.892068
v -0.644775 8.655204 -0.892356
v -0.644775 8.655204 0.892068
v 0.000000 8.827933 -0.892356
v 0.000000 8.827933 0.892068
v 0.644775 8.655204 -0.892356
v 0.644775 8.655204 0.892068
v 1.116821 8.183158 -0.892356
v 1.116821 8.183158 0.892068
v 1.289551 7.538382 -0.892356
v -1.191040 6.921072 -0.524924
v 0.000000 6.231741 -0.524923
v -1.191040 6.231741 -0.524923
v 0.000000 7.246634 -0.524924
v 1.191040 6.921073 0.524637
v 0.000000 6.231742 0.524637
v 1.191040 6.231742 0.524637
v 0.000000 7.246635 0.524637
v 1.191040 6.921072 -0.524924
v 1.191040 6.231741 -0.524923
v -1.191040 6.921073 0.524637
v -1.191040 6.231742 0.524637
v -0.838379 7.054374 0.973489
v -0.838379 8.022513 0.973489
v -0.968140 7.538383 0.973489
v -0.484009 6.700004 0.973490
v -0.838379 8.022513 -0.973777
v -0.838379 7.054373 -0.973776
v -0.968140 7.538382 -0.973776
v -0.484009 8.376884 -0.973777
v -0.484009 6.700003 -0.973776
v 0.000000 8.506522 -0.973777
v 0.000000 6.570242 -0.973776
v 0.484009 8.376884 -0.973777
v 0.484009 6.700003 -0.973776
v 0.838379 8.022513 -0.973777
v 0.838379 7.054373 -0.973776
v 0.968140 7.538382 -0.973776
v -0.484009 8.376884 0.973489
v 0.000000 6.570243 0.973490
v 0.000000 8.506522 0.973489
v 0.484009 6.700004 0.973490
v 0.484009 8.376884 0.973489
v 0.838379 7.054374 0.973489
v 0.838379 8.022513 0.973489
v 0.968140 7.538383 0.973489
v 1.191040 6.921073 0.524637
v 0.000000 7.246634 -0.524924
v 0.000000 7.246635 0.524637
v 1.191040 6.921072 -0.524924
v -1.191040 6.231741 -0.524923
v -1.191040 6.921073 0.524637
v -1.191040 6.921072 -0.524924
v -1.191040 6.231742 0.524637
v 1.191040 6.231742 0.524637
v 1.191040 6.921072 -0.524924
v 1.191040 6.921073 0.524637
v 1.191040 6.231741 -0.524923
v 0.000000 7.246635 0.524637
v -1.191040 6.921072 -0.524924
v -1.191040 6.921073 0.524637
v 0.000000 7.246634 -0.524924

vt 0.392487 0.987915
vt 0.392487 0.943115
vt 0.360901 0.987915
vt 0.424072 0.943115
vt 0.424072 0.987915
vt 0.455139 0.943115
vt 0.455139 0.987915
vt 0.423035 0.943115
vt 0.423035 0.987915
vt 0.391449 0.943115
vt 0.391449 0.987915
vt 0.359863 0.943115
vt 0.359863 0.987915
vt 0.328278 0.943115
vt 0.328278 0.987915
vt 0.296692 0.943115
vt 0.296692 0.987915
vt 0.266144 0.943115
vt 0.266144 0.987915
vt 0.297729 0.943115
vt 0.297729 0.987915
vt 0.329315 0.943115
vt 0.329315 0.987915
vt 0.360901 0.943115
vt 0.360901 0.576660
vt 0.360901 0.609009
vt 0.392487 0.576660
vt 0.329315 0.609009
vt 0.329315 0.576660
vt 0.297729 0.609009
vt 0.297729 0.576660
vt 0.266144 0.609009
vt 0.266144 0.576660
vt 0.296692 0.609009
vt 0.296692 0.576660
vt 0.328278 0.609009
vt 0.328278 0.576660
vt 0.359863 0.609009
vt 0.359863 0.576660
vt 0.391449 0.609009
vt 0.391449 0.576660
vt 0.423035 0.609009
vt 0.423035 0.576660
vt 0.455139 0.609009
vt 0.455139 0.576660
vt 0.424072 0.609009
vt 0.424072 0.576660
vt 0.392487 0.609009
vt 0.392487 0.943115
vt 0.392487 0.609009
vt 0.360901 0.943115
vt 0.424072 0.609009
vt 0.424072 0.943115
vt 0.455139 0.609009
vt 0.455139 0.943115
vt 0.423035 0.609009
vt 0.423035 0.943115
vt 0.391449 0.609009
vt 0.391449 0.943115
vt 0.359863 0.609009
vt 0.359863 0.943115
vt 0.328278 0.609009
vt 0.328278 0.943115
vt 0.296692 0.609009
vt 0.296692 0.943115
vt 0.266144 0.609009
vt 0.266144 0.943115
vt 0.297729 0.609009
vt 0.297729 0.943115
vt 0.329315 0.609009
vt 0.329315 0.943115
vt 0.360901 0.609009
vt 0.002258 0.650208
vt 0.230042 0.445740
vt 0.002258 0.445740
vt 0.230042 0.642426
vt 0.002258 0.650208
vt 0.230042 0.445740
vt 0.002258 0.445740
vt 0.230042 0.642426
vt 0.001709 0.650208
vt 0.001709 0.445740
vt 0.001709 0.650208
vt 0.001709 0.445740
vt 0.065063 0.633423
vt 0.065063 0.841888
vt 0.037140 0.737640
vt 0.141357 0.557098
vt 0.065063 0.841888
vt 0.065063 0.633423
vt 0.037140 0.737640
vt 0.141357 0.918213
vt 0.141357 0.557098
vt 0.245392 0.946136
vt 0.245392 0.529175
vt 0.141144 0.918213
vt 0.141144 0.557098
vt 0.064850 0.841888
vt 0.064850 0.633423
vt 0.036926 0.737640
vt 0.141357 0.918213
vt 0.245392 0.529175
vt 0.245392 0.946136
vt 0.141144 0.557098
vt 0.141144 0.918213
vt 0.064850 0.633423
vt 0.064850 0.841888
vt 0.036926 0.737640
vt 0.009064 0.199677
vt 0.229706 0.281647
vt 0.009064 0.281647
vt 0.229706 0.199677
vt 0.009064 0.002319
vt 0.229706 0.199677
vt 0.009064 0.199677
vt 0.229706 0.002319
vt 0.009064 0.002319
vt 0.229706 0.199677
vt 0.009064 0.199677
vt 0.229706 0.002319
vt 0.229706 0.281647
vt 0.009064 0.199677
vt 0.229706 0.199677
vt 0.009064 0.281647

vn 0.124570 -0.071897 0.989603
vn 0.212525 -0.122681 0.969424
vn 0.143796 0.000000 0.989607
vn 0.122681 -0.212524 0.969424
vn 0.071898 -0.124570 0.989603
vn 0.000000 -0.245421 0.969417
vn 0.000000 -0.143796 0.989607
vn -0.122681 -0.212524 0.969424
vn -0.071898 -0.124570 0.989603
vn -0.212525 -0.122681 0.969424
vn -0.124570 -0.071897 0.989603
vn -0.245421 0.000000 0.969417
vn -0.143796 0.000000 0.989607
vn -0.212525 0.122681 0.969424
vn -0.124570 0.071898 0.989602
vn -0.122681 0.212525 0.969424
vn -0.071898 0.124571 0.989602
vn 0.000000 0.245422 0.969416
vn 0.000000 0.143797 0.989607
vn 0.122681 0.212525 0.969424
vn 0.071898 0.124571 0.989602
vn 0.212525 0.122681 0.969424
vn 0.124570 0.071898 0.989602
vn 0.245421 0.000000 0.969417
vn 0.143796 -0.000000 -0.989607
vn 0.245421 -0.000000 -0.969417
vn 0.124570 -0.071898 -0.989602
vn 0.212525 0.122681 -0.969424
vn 0.124570 0.071897 -0.989603
vn 0.122681 0.212524 -0.969424
vn 0.071898 0.124570 -0.989603
vn 0.000000 0.245421 -0.969417
vn 0.000000 0.143796 -0.989607
vn -0.122681 0.212524 -0.969424
vn -0.071898 0.124570 -0.989603
vn -0.212525 0.122681 -0.969424
vn -0.124570 0.071897 -0.989603
vn -0.245421 -0.000000 -0.969417
vn -0.143796 -0.000000 -0.989607
vn -0.212525 -0.122681 -0.969424
vn -0.124570 -0.071898 -0.989602
vn -0.122681 -0.212525 -0.969424
vn -0.071898 -0.124571 -0.989602
vn 0.000000 -0.245422 -0.969416
vn 0.000000 -0.143797 -0.989607
vn 0.122681 -0.212525 -0.969424
vn 0.071898 -0.124571 -0.989602
vn 0.212525 -0.122681 -0.969424
vn 0.866026 -0.499999 0.000000
vn 0.866026 -0.499999 0.000000
vn 1.000000 0.000000 0.000000
vn 0.499999 -0.866026 0.000000
vn 0.499999 -0.866026 0.000000
vn 0.000000 -1.000000 0.000000
vn 0.000000 -1.000000 0.000000
vn -0.499999 -0.866026 0.000000
vn -0.499999 -0.866026 0.000000
vn -0.866026 -0.499999 0.000000
vn -0.866026 -0.499999 0.000000
vn -1.000000 0.000000 0.000000
vn -1.000000 0.000000 0.000000
vn -0.866026 0.499999 -0.000000
vn -0.866026 0.499999 -0.000000
vn -0.499999 0.866026 -0.000000
vn -0.499999 0.866026 -0.000000
vn 0.000000 1.000000 -0.000000
vn 0.000000 1.000000 -0.000000
vn 0.499999 0.866026 -0.000000
vn 0.499999 0.866026 -0.000000
vn 0.866026 0.499999 -0.000000
vn 0.866026 0.499999 -0.000000
vn 1.000000 0.000000 0.000000
vn 0.000000 -0.000000 -1.000000
vn 0.000000 -0.000000 -1.000000
vn 0.000000 -0.000000 -1.000000
vn 0.000000 -0.000000 -1.000000
vn 0.000000 0.000000 1.000000
vn 0.000000 0.000000 1.000000
vn 0.000000 0.000000 1.000000
vn 0.000000 0.000000 1.000000
vn 0.000000 -0.000000 -1.000000
vn 0.000000 -0.000000 -1.000000
vn 0.000000 0.000000 1.000000
vn 0.000000 0.000000 1.000000
vn -0.124570 -0.071897 0.989603
vn -0.124570 0.071898 0.989602
vn -0.143796 0.000000 0.989607
vn -0.071898 -0.124570 0.989603
vn -0.124570 0.071897 -0.989603
vn -0.124570 -0.071898 -0.989602
vn -0.143796 -0.000000 -0.989607
vn -0.071898 0.124570 -0.989603
vn -0.071898 -0.124571 -0.989602
vn 0.000000 0.143796 -0.989607
vn 0.000000 -0.143797 -0.989607
vn 0.071898 0.124570 -0.989603
vn 0.071898 -0.124571 -0.989602
vn 0.124570 0.071897 -0.989603
vn 0.124570 -0.071898 -0.989602
vn 0.143796 -0.000000 -0.989607
vn -0.071898 0.124571 0.989602
vn 0.000000 -0.143796 0.989607
vn 0.000000 0.143797 0.989607
vn 0.071898 -0.124570 0.989603
vn 0.071898 0.124571 0.989602
vn 0.124570 -0.071897 0.989603
vn 0.124570 0.071898 0.989602
vn 0.143796 0.000000 0.989607
vn 0.263675 0.964612 -0.000000
vn 0.000000 1.000000 -0.000000
vn 0.000000 1.000000 -0.000000
vn 0.263675 0.964612 -0.000000
vn -1.000000 0.000000 0.000000
vn -1.000000 0.000000 0.000000
vn -1.000000 0.000000 0.000000
vn -1.000000 0.000000 0.000000
vn 1.000000 0.000000 0.000000
vn 1.000000 0.000000 0.000000
vn 1.000000 0.000000 0.000000
vn 1.000000 0.000000 0.000000
vn 0.000000 1.000000 -0.000000
vn -0.263675 0.964612 -0.000000
vn -0.263675 0.964612 -0.000000
vn 0.000000 1.000000 -0.000000

g polygon2
s 1
usemtl mat1
f 72/72/72 73/73/73 74/74/74
f 72/72/72 75/75/75 73/73/73
f 76/76/76 75/75/75 72/72/72
f 76/76/76 77/77/77 75/75/75
f 78/78/78 77/77/77 76/76/76
f 78/78/78 79/79/79 77/77/77
f 80/80/80 79/79/79 78/78/78
f 80/80/80 81/81/81 79/79/79
f 82/82/82 81/81/81 80/80/80
f 82/82/82 83/83/83 81/81/81
f 84/84/84 83/83/83 82/82/82
f 84/84/84 85/85/85 83/83/83
f 86/86/86 85/85/85 84/84/84
f 86/86/86 87/87/87 85/85/85
f 88/88/88 87/87/87 86/86/86
f 88/88/88 89/89/89 87/87/87
f 90/90/90 89/89/89 88/88/88
f 90/90/90 91/91/91 89/89/89
f 92/92/92 91/91/91 90/90/90
f 92/92/92 93/93/93 91/91/91
f 94/94/94 93/93/93 92/92/92
f 94/94/94 95/95/95 93/93/93
f 74/74/74 95/95/95 94/94/94
f 74/74/74 73/73/73 95/95/95
f 96/96/96 97/97/97 98/98/98
f 96/96/96 99/99/99 97/97/97
f 100/100/100 99/99/99 96/96/96
f 100/100/100 101/101/101 99/99/99
f 102/102/102 101/101/101 100/100/100
f 102/102/102 103/103/103 101/101/101
f 104/104/104 103/103/103 102/102/102
f 104/104/104 105/105/105 103/103/103
f 106/106/106 105/105/105 104/104/104
f 106/106/106 107/107/107 105/105/105
f 108/108/108 107/107/107 106/106/106
f 108/108/108 109/109/109 107/107/107
f 110/110/110 109/109/109 108/108/108
f 110/110/110 111/111/111 109/109/109
f 112/112/112 111/111/111 110/110/110
f 112/112/112 113/113/113 111/111/111
f 114/114/114 113/113/113 112/112/112
f 114/114/114 115/115/115 113/113/113
f 116/116/116 115/115/115 114/114/114
f 116/116/116 117/117/117 115/115/115
f 118/118/118 117/117/117 116/116/116
f 118/118/118 119/119/119 117/117/117
f 98/98/98 119/119/119 118/118/118
f 98/98/98 97/97/97 119/119/119
f 120/120/120 121/121/121 122/122/122
f 120/120/120 123/123/123 121/121/121
f 124/124/124 123/123/123 120/120/120
f 124/124/124 125/125/125 123/123/123
f 126/126/126 125/125/125 124/124/124
f 126/126/126 127/127/127 125/125/125
f 128/128/128 127/127/127 126/126/126
f 128/128/128 129/129/129 127/127/127
f 130/130/130 129/129/129 128/128/128
f 130/130/130 131/131/131 129/129/129
f 132/132/132 131/131/131 130/130/130
f 132/132/132 133/133/133 131/131/131
f 134/134/134 133/133/133 132/132/132
f 134/134/134 135/135/135 133/133/133
f 136/136/136 135/135/135 134/134/134
f 136/136/136 137/137/137 135/135/135
f 138/138/138 137/137/137 136/136/136
f 138/138/138 139/139/139 137/137/137
f 140/140/140 139/139/139 138/138/138
f 140/140/140 141/141/141 139/139/139
f 142/142/142 141/141/141 140/140/140
f 142/142/142 143/143/143 141/141/141
f 122/122/122 143/143/143 142/142/142
f 122/122/122 121/121/121 143/143/143
f 144/144/144 145/145/145 146/146/146
f 144/144/144 147/147/147 145/145/145
f 148/148/148 149/149/149 150/150/150
f 148/148/148 151/151/151 149/149/149
f 152/152/152 145/145/145 147/147/147
f 152/152/152 153/153/153 145/145/145
f 154/154/154 149/149/149 151/151/151
f 154/154/154 155/155/155 149/149/149
f 156/156/156 157/157/157 158/158/158
f 156/156/156 159/159/159 157/157/157
f 160/160/160 161/161/161 162/162/162
f 160/160/160 163/163/163 161/161/161
f 163/163/163 164/164/164 161/161/161
f 163/163/163 165/165/165 164/164/164
f 165/165/165 166/166/166 164/164/164
f 165/165/165 167/167/167 166/166/166
f 167/167/167 168/168/168 166/166/166
f 167/167/167 169/169/169 168/168/168
f 169/169/169 170/170/170 168/168/168
f 169/169/169 171/171/171 170/170/170
f 159/159/159 172/172/172 157/157/157
f 159/159/159 173/173/173 172/172/172
f 173/173/173 174/174/174 172/172/172
f 173/173/173 175/175/175 174/174/174
f 175/175/175 176/176/176 174/174/174
f 175/175/175 177/177/177 176/176/176
f 177/177/177 178/178/178 176/176/176
f 177/177/177 179/179/179 178/178/178
f 180/180/180 181/181/181 182/182/182
f 180/180/180 183/183/183 181/181/181
f 184/184/184 185/185/185 186/186/186
f 184/184/184 187/187/187 185/185/185
f 188/188/188 189/189/189 190/190/190
f 188/188/188 191/191/191 189/189/189
f 192/192/192 193/193/193 194/194/194
f 192/192/192 195/195/195 193/193/193

v -0.480957 17.973549 -0.662145
v -0.778320 17.277258 -1.071322
v -1.259277 17.277262 -0.409213
v 0.000000 17.277258 -1.323763
v 0.480957 17.973549 -0.662145
v 0.778320 17.277258 -1.071322
v 1.259277 17.277262 -0.409213
v 0.778320 16.416906 -1.071319
v 1.259277 16.416910 -0.409210
v 0.480957 15.721107 -0.662137
v 0.778320 15.721110 0.252902
v 0.000000 15.454996 -0.000027
v 0.000000 15.721112 0.818331
v -0.778320 15.721110 0.252902
v -0.778320 16.416914 1.071259
v -1.259277 16.416912 0.409149
v -1.259277 17.277264 0.409147
v -0.778320 17.973553 0.252894
v 0.000000 18.239176 -0.000036
v 0.778320 17.973553 0.252894
v 1.259277 17.277264 0.409147
v 1.259277 16.416912 0.409149
v 0.778320 16.416914 1.071259
v 0.000000 16.416916 1.324189
v -0.778320 17.277266 1.071256
v -0.259766 15.623453 -0.259793
v -0.174805 15.227945 -0.174831
v -0.259766 15.623454 0.259738
v 0.174805 15.227945 -0.174831
v 0.259766 15.623453 -0.259793
v 0.174805 15.227946 0.174778
v 0.259766 15.623454 0.259738
v -0.174805 15.227946 0.174778
v -0.174805 7.989665 0.174803
v -0.174805 7.989664 -0.174807
v 0.174805 7.989665 0.174803
v 0.174805 7.989664 -0.174807
v -0.480957 15.721107 -0.662137
v 0.000000 16.416906 -1.323761
v -0.778320 16.416906 -1.071319
v 0.778320 17.277266 1.071256
v 0.000000 17.277267 1.324186
v 0.000000 17.973555 0.818324
v -1.259277 16.416910 -0.409210

vt 0.022583 0.991516
vt 0.014954 0.975281
vt 0.002563 0.975281
vt 0.034973 0.975281
vt 0.047363 0.991516
vt 0.055054 0.975281
vt 0.067444 0.975281
vt 0.055054 0.955200
vt 0.067444 0.955200
vt 0.047363 0.938965
vt 0.055054 0.938965
vt 0.034973 0.932800
vt 0.034973 0.938965
vt 0.014954 0.938965
vt 0.014954 0.955200
vt 0.002563 0.955200
vt 0.002563 0.975281
vt 0.014954 0.991516
vt 0.034973 0.997681
vt 0.055054 0.991516
vt 0.067444 0.975281
vt 0.067444 0.955200
vt 0.055054 0.955200
vt 0.034973 0.955200
vt 0.014954 0.975281
vt 0.996704 1.089539
vt 0.996704 0.998047
vt 0.903870 1.089539
vt 0.903870 0.998047
vt 0.903870 1.089539
vt 0.996704 0.998047
vt 0.996704 1.089539
vt 0.903870 0.998047
vt 0.903870 0.007446
vt 0.996704 0.007446
vt 0.996704 0.007446
vt 0.903870 0.007446
vt 0.022583 0.938965
vt 0.034973 0.955200
vt 0.014954 0.955200
vt 0.055054 0.975281
vt 0.034973 0.975281
vt 0.034973 0.991516
vt 0.002563 0.955200

vn -0.351628 0.801339 -0.483956
vn -0.562084 0.292484 -0.773637
vn -0.903452 0.312441 -0.293522
vn 0.000000 0.312432 -0.949940
vn 0.351628 0.801339 -0.483956
vn 0.562084 0.292484 -0.773637
vn 0.903452 0.312441 -0.293522
vn 0.562084 -0.292489 -0.773635
vn 0.903452 -0.312443 -0.293520
vn 0.351617 -0.801318 -0.483998
vn 0.568959 -0.801315 0.184875
vn 0.000000 -1.000000 0.000003
vn 0.000000 -0.801336 0.598214
vn -0.568959 -0.801315 0.184875
vn -0.558362 -0.312443 0.768512
vn -0.909464 -0.292473 0.295526
vn -0.909464 0.292475 0.295524
vn -0.568959 0.801317 0.184869
vn 0.000000 1.000000 -0.000003
vn 0.568959 0.801317 0.184869
vn 0.909464 0.292475 0.295524
vn 0.909464 -0.292473 0.295526
vn 0.558362 -0.312443 0.768512
vn 0.000000 -0.292470 0.956275
vn -0.558362 0.312449 0.768510
vn -0.676763 -0.289800 -0.676762
vn -0.698332 -0.157052 -0.698332
vn -0.676763 -0.289795 0.676764
vn 0.698332 -0.157052 -0.698332
vn 0.676763 -0.289800 -0.676762
vn 0.698332 -0.157048 0.698333
vn 0.676763 -0.289795 0.676764
vn -0.698332 -0.157048 0.698333
vn -0.707107 0.000002 0.707107
vn -0.707107 -0.000002 -0.707107
vn 0.707107 0.000002 0.707107
vn 0.707107 -0.000002 -0.707107
vn -0.351617 -0.801318 -0.483998
vn 0.000000 -0.312438 -0.949938
vn -0.562084 -0.292489 -0.773635
vn 0.558362 0.312449 0.768510
vn 0.000000 0.292476 0.956273
vn 0.000000 0.801340 0.598209
vn -0.903452 -0.312443 -0.293520

g polygon3
s 1
usemtl mat1
f 196/196/196 197/197/197 198/198/198
f 196/196/196 199/199/199 197/197/197
f 200/200/200 199/199/199 196/196/196
f 200/200/200 201/201/201 199/199/199
f 202/202/202 201/201/201 200/200/200
f 202/202/202 203/203/203 201/201/201
f 204/204/204 203/203/203 202/202/202
f 204/204/204 205/205/205 203/203/203
f 206/206/206 205/205/205 204/204/204
f 206/206/206 207/207/207 205/205/205
f 208/208/208 207/207/207 206/206/206
f 208/208/208 209/209/209 207/207/207
f 210/210/210 209/209/209 208/208/208
f 210/210/210 211/211/211 209/209/209
f 212/212/212 211/211/211 210/210/210
f 212/212/212 198/198/198 211/211/211
f 213/213/213 198/198/198 212/212/212
f 213/213/213 196/196/196 198/198/198
f 214/214/214 196/196/196 213/213/213
f 214/214/214 200/200/200 196/196/196
f 215/215/215 200/200/200 214/214/214
f 215/215/215 202/202/202 200/200/200
f 216/216/216 202/202/202 215/215/215
f 216/216/216 204/204/204 202/202/202
f 217/217/217 204/204/204 216/216/216
f 217/217/217 206/206/206 204/204/204
f 218/218/218 206/206/206 217/217/217
f 218/218/218 208/208/208 206/206/206
f 219/219/219 208/208/208 218/218/218
f 219/219/219 210/210/210 208/208/208
f 220/220/220 210/210/210 219/219/219
f 220/220/220 212/212/212 210/210/210
f 213/213/213 212/212/212 220/220/220
f 221/221/221 222/222/222 223/223/223
f 221/221/221 224/224/224 222/222/222
f 225/225/225 224/224/224 221/221/221
f 225/225/225 226/226/226 224/224/224
f 227/227/227 226/226/226 225/225/225
f 227/227/227 228/228/228 226/226/226
f 223/223/223 228/228/228 227/227/227
f 223/223/223 222/222/222 228/228/228
f 229/229/229 222/222/222 230/230/230
f 229/229/229 228/228/228 222/222/222
f 231/231/231 228/228/228 229/229/229
f 231/231/231 226/226/226 228/228/228
f 232/232/232 226/226/226 231/231/231
f 232/232/232 224/224/224 226/226/226
f 230/230/230 224/224/224 232/232/232
f 230/230/230 222/222/222 224/224/224
f 233/233/233 205/205/205 207/207/207
f 233/233/233 234/234/234 205/205/205
f 235/235/235 234/234/234 233/233/233
f 235/235/235 199/199/199 234/234/234
f 197/197/197 199/199/199 235/235/235
f 236/236/236 218/218/218 217/217/217
f 236/236/236 237/237/237 218/218/218
f 238/238/238 237/237/237 236/236/236
f 238/238/238 220/220/220 237/237/237
f 213/213/213 220/220/220 238/238/238
f 209/209/209 233/233/233 207/207/207
f 209/209/209 239/239/239 233/233/233
f 211/211/211 239/239/239 209/209/209
f 211/211/211 198/198/198 239/239/239
f 234/234/234 203/203/203 205/205/205
f 234/234/234 201/201/201 203/203/203
f 199/199/199 201/201/201 234/234/234
f 239/239/239 235/235/235 233/233/233
f 239/239/239 197/197/197 235/235/235
f 198/198/198 197/197/197 239/239/239
f 216/216/216 236/236/236 217/217/217
f 216/216/216 215/215/215 236/236/236
f 237/237/237 219/219/219 218/218/218
f 237/237/237 220/220/220 219/219/219
f 215/215/215 238/238/238 236/236/236
f 215/215/215 214/214/214 238/238/238
f 213/213/213 238/238/238 214/214/214

