%YAML 1.1
%TAG !u! tag:unity3d.com,2011:
--- !u!1 &3413043563011079816
GameObject:
  m_ObjectHideFlags: 0
  m_CorrespondingSourceObject: {fileID: 0}
  m_PrefabInstance: {fileID: 0}
  m_PrefabAsset: {fileID: 0}
  serializedVersion: 6
  m_Component:
  - component: {fileID: 3413043563011079819}
  - component: {fileID: 3413043563011079829}
  - component: {fileID: 3413043563011079818}
  m_Layer: 2
  m_Name: Lookat Trigger
  m_TagString: Untagged
  m_Icon: {fileID: 0}
  m_NavMeshLayer: 0
  m_StaticEditorFlags: 0
  m_IsActive: 1
--- !u!4 &3413043563011079819
Transform:
  m_ObjectHideFlags: 0
  m_CorrespondingSourceObject: {fileID: 0}
  m_PrefabInstance: {fileID: 0}
  m_PrefabAsset: {fileID: 0}
  m_GameObject: {fileID: 3413043563011079816}
  m_LocalRotation: {x: 0, y: 0, z: 0, w: 1}
  m_LocalPosition: {x: 0, y: -4, z: 0}
  m_LocalScale: {x: 1, y: 1, z: 1}
  m_Children: []
  m_Father: {fileID: 0}
  m_RootOrder: 0
  m_LocalEulerAnglesHint: {x: 0, y: 0, z: 0}
--- !u!135 &3413043563011079829
SphereCollider:
  m_ObjectHideFlags: 0
  m_CorrespondingSourceObject: {fileID: 0}
  m_PrefabInstance: {fileID: 0}
  m_PrefabAsset: {fileID: 0}
  m_GameObject: {fileID: 3413043563011079816}
  m_Material: {fileID: 0}
  m_IsTrigger: 1
  m_Enabled: 1
  serializedVersion: 2
  m_Radius: 32
  m_Center: {x: 0, y: 0, z: 0}
--- !u!114 &3413043563011079818
MonoBehaviour:
  m_ObjectHideFlags: 0
  m_CorrespondingSourceObject: {fileID: 0}
  m_PrefabInstance: {fileID: 0}
  m_PrefabAsset: {fileID: 0}
  m_GameObject: {fileID: 3413043563011079816}
  m_Enabled: 1
  m_EditorHideFlags: 0
  m_Script: {fileID: 11500000, guid: f8f0f2220fc3de742847f3be594c979e, type: 3}
  m_Name: 
  m_EditorClassIdentifier: 
  currentCam: {fileID: 0}
  active: 0
  activeOnlyLook: 0
  ct:
    setPosition: 1
    setRotation: 0
    setLookat: 1
    positionTarget: {fileID: 0}
    rotationTarget: {fileID: 0}
    lookTarget: {fileID: 3413043563011079819}
    rotationInterpolate: 0.5
    positionInterpolate: 0.5
  onlyLook: 0
  onlyLookTarget: {fileID: 3413043563011079819}
  refp: {fileID: 0}
  lookOnlyInterpolation: 0.25
  lockPositionTarget: {fileID: 0}
  lookDistance: -16
