<?xml version="1.0" ?>
<COLLADA xmlns="http://www.collada.org/2005/11/COLLADASchema" version="1.4.1">
    <asset>
        <contributor>
            <authoring_tool>SonicGLvl - COLLADA Exporter</authoring_tool>
        </contributor>
        <unit name="meters" meter="1.0" />
        <up_axis>Y_UP</up_axis>
    </asset>
    <library_images>
        <image id="enm_spina_body_dif_HD-image" name="enm_spina_body_dif_HD-image">
            <init_from>./textures/enm_spina_body_dif_HD.dds</init_from>
        </image>
        <image id="enm_spina_body_spc_HD-image" name="enm_spina_body_spc_HD-image">
            <init_from>./textures/enm_spina_body_spc_HD.dds</init_from>
        </image>
        <image id="enm_spina_body_nrm_HD-image" name="enm_spina_body_nrm_HD-image">
            <init_from>./textures/enm_spina_body_nrm_HD.dds</init_from>
        </image>
        <image id="enm_spina_body_ref_HD-image" name="enm_spina_body_ref_HD-image">
            <init_from>./textures/enm_spina_body_ref_HD.dds</init_from>
        </image>
        <image id="enm_spina_body_fal_HD-image" name="enm_spina_body_fal_HD-image">
            <init_from>./textures/enm_spina_body_fal_HD.dds</init_from>
        </image>
        <image id="enm_spina_metal_ref_HD-image" name="enm_spina_metal_ref_HD-image">
            <init_from>./textures/enm_spina_metal_ref_HD.dds</init_from>
        </image>
        <image id="enm_cmn_pieces_dif_HD-image" name="enm_cmn_pieces_dif_HD-image">
            <init_from>./textures/enm_cmn_pieces_dif_HD.dds</init_from>
        </image>
        <image id="enm_cmn_pieces_spc_HD-image" name="enm_cmn_pieces_spc_HD-image">
            <init_from>./textures/enm_cmn_pieces_spc_HD.dds</init_from>
        </image>
        <image id="enm_cmn_pieces_nrm_HD-image" name="enm_cmn_pieces_nrm_HD-image">
            <init_from>./textures/enm_cmn_pieces_nrm_HD.dds</init_from>
        </image>
        <image id="enm_cmn_pieces_ref_HD-image" name="enm_cmn_pieces_ref_HD-image">
            <init_from>./textures/enm_cmn_pieces_ref_HD.dds</init_from>
        </image>
        <image id="enm_cmn_pieces_fal_HD-image" name="enm_cmn_pieces_fal_HD-image">
            <init_from>./textures/enm_cmn_pieces_fal_HD.dds</init_from>
        </image>
    </library_images>
    <library_materials>
        <material id="enm_spina_bodyID" name="enm_spina_body">
            <instance_effect url="#enm_spina_body-effect" />
        </material>
        <material id="enm_spina_metalID" name="enm_spina_metal">
            <instance_effect url="#enm_spina_metal-effect" />
        </material>
        <material id="enm_common_piecesID" name="enm_common_pieces">
            <instance_effect url="#enm_common_pieces-effect" />
        </material>
    </library_materials>
    <library_effects>
        <effect id="enm_spina_body-effect" name="enm_spina_body-effect">
            <profile_COMMON>
                <newparam sid="enm_spina_body_dif_HD-image-surface">
                    <surface type="2D">
                        <init_from>enm_spina_body_dif_HD-image</init_from>
                    </surface>
                </newparam>
                <newparam sid="enm_spina_body_dif_HD-image-sampler">
                    <sampler2D>
                        <source>enm_spina_body_dif_HD-image-surface</source>
                    </sampler2D>
                </newparam>
                <newparam sid="enm_spina_body_spc_HD-image-surface">
                    <surface type="2D">
                        <init_from>enm_spina_body_spc_HD-image</init_from>
                    </surface>
                </newparam>
                <newparam sid="enm_spina_body_spc_HD-image-sampler">
                    <sampler2D>
                        <source>enm_spina_body_spc_HD-image-surface</source>
                    </sampler2D>
                </newparam>
                <newparam sid="enm_spina_body_nrm_HD-image-surface">
                    <surface type="2D">
                        <init_from>enm_spina_body_nrm_HD-image</init_from>
                    </surface>
                </newparam>
                <newparam sid="enm_spina_body_nrm_HD-image-sampler">
                    <sampler2D>
                        <source>enm_spina_body_nrm_HD-image-surface</source>
                    </sampler2D>
                </newparam>
                <newparam sid="enm_spina_body_ref_HD-image-surface">
                    <surface type="2D">
                        <init_from>enm_spina_body_ref_HD-image</init_from>
                    </surface>
                </newparam>
                <newparam sid="enm_spina_body_ref_HD-image-sampler">
                    <sampler2D>
                        <source>enm_spina_body_ref_HD-image-surface</source>
                    </sampler2D>
                </newparam>
                <newparam sid="enm_spina_body_fal_HD-image-surface">
                    <surface type="2D">
                        <init_from>enm_spina_body_fal_HD-image</init_from>
                    </surface>
                </newparam>
                <newparam sid="enm_spina_body_fal_HD-image-sampler">
                    <sampler2D>
                        <source>enm_spina_body_fal_HD-image-surface</source>
                    </sampler2D>
                </newparam>
                <technique sid="COMMON">
                    <phong>
                        <diffuse>
                            <texture texture="enm_spina_body_dif_HD-image-sampler" texcoord="UVSET0" />
                            <color>1.000000 1.000000 1.000000 1</color>
                        </diffuse>
                    </phong>
                </technique>
            </profile_COMMON>
        </effect>
        <effect id="enm_spina_metal-effect" name="enm_spina_metal-effect">
            <profile_COMMON>
                <newparam sid="enm_spina_body_dif_HD-image-surface">
                    <surface type="2D">
                        <init_from>enm_spina_body_dif_HD-image</init_from>
                    </surface>
                </newparam>
                <newparam sid="enm_spina_body_dif_HD-image-sampler">
                    <sampler2D>
                        <source>enm_spina_body_dif_HD-image-surface</source>
                    </sampler2D>
                </newparam>
                <newparam sid="enm_spina_body_spc_HD-image-surface">
                    <surface type="2D">
                        <init_from>enm_spina_body_spc_HD-image</init_from>
                    </surface>
                </newparam>
                <newparam sid="enm_spina_body_spc_HD-image-sampler">
                    <sampler2D>
                        <source>enm_spina_body_spc_HD-image-surface</source>
                    </sampler2D>
                </newparam>
                <newparam sid="enm_spina_body_nrm_HD-image-surface">
                    <surface type="2D">
                        <init_from>enm_spina_body_nrm_HD-image</init_from>
                    </surface>
                </newparam>
                <newparam sid="enm_spina_body_nrm_HD-image-sampler">
                    <sampler2D>
                        <source>enm_spina_body_nrm_HD-image-surface</source>
                    </sampler2D>
                </newparam>
                <newparam sid="enm_spina_metal_ref_HD-image-surface">
                    <surface type="2D">
                        <init_from>enm_spina_metal_ref_HD-image</init_from>
                    </surface>
                </newparam>
                <newparam sid="enm_spina_metal_ref_HD-image-sampler">
                    <sampler2D>
                        <source>enm_spina_metal_ref_HD-image-surface</source>
                    </sampler2D>
                </newparam>
                <newparam sid="enm_spina_body_fal_HD-image-surface">
                    <surface type="2D">
                        <init_from>enm_spina_body_fal_HD-image</init_from>
                    </surface>
                </newparam>
                <newparam sid="enm_spina_body_fal_HD-image-sampler">
                    <sampler2D>
                        <source>enm_spina_body_fal_HD-image-surface</source>
                    </sampler2D>
                </newparam>
                <technique sid="COMMON">
                    <phong>
                        <diffuse>
                            <texture texture="enm_spina_body_dif_HD-image-sampler" texcoord="UVSET0" />
                            <color>1.000000 1.000000 1.000000 1</color>
                        </diffuse>
                    </phong>
                </technique>
            </profile_COMMON>
        </effect>
        <effect id="enm_common_pieces-effect" name="enm_common_pieces-effect">
            <profile_COMMON>
                <newparam sid="enm_cmn_pieces_dif_HD-image-surface">
                    <surface type="2D">
                        <init_from>enm_cmn_pieces_dif_HD-image</init_from>
                    </surface>
                </newparam>
                <newparam sid="enm_cmn_pieces_dif_HD-image-sampler">
                    <sampler2D>
                        <source>enm_cmn_pieces_dif_HD-image-surface</source>
                    </sampler2D>
                </newparam>
                <newparam sid="enm_cmn_pieces_spc_HD-image-surface">
                    <surface type="2D">
                        <init_from>enm_cmn_pieces_spc_HD-image</init_from>
                    </surface>
                </newparam>
                <newparam sid="enm_cmn_pieces_spc_HD-image-sampler">
                    <sampler2D>
                        <source>enm_cmn_pieces_spc_HD-image-surface</source>
                    </sampler2D>
                </newparam>
                <newparam sid="enm_cmn_pieces_nrm_HD-image-surface">
                    <surface type="2D">
                        <init_from>enm_cmn_pieces_nrm_HD-image</init_from>
                    </surface>
                </newparam>
                <newparam sid="enm_cmn_pieces_nrm_HD-image-sampler">
                    <sampler2D>
                        <source>enm_cmn_pieces_nrm_HD-image-surface</source>
                    </sampler2D>
                </newparam>
                <newparam sid="enm_cmn_pieces_ref_HD-image-surface">
                    <surface type="2D">
                        <init_from>enm_cmn_pieces_ref_HD-image</init_from>
                    </surface>
                </newparam>
                <newparam sid="enm_cmn_pieces_ref_HD-image-sampler">
                    <sampler2D>
                        <source>enm_cmn_pieces_ref_HD-image-surface</source>
                    </sampler2D>
                </newparam>
                <newparam sid="enm_cmn_pieces_fal_HD-image-surface">
                    <surface type="2D">
                        <init_from>enm_cmn_pieces_fal_HD-image</init_from>
                    </surface>
                </newparam>
                <newparam sid="enm_cmn_pieces_fal_HD-image-sampler">
                    <sampler2D>
                        <source>enm_cmn_pieces_fal_HD-image-surface</source>
                    </sampler2D>
                </newparam>
                <technique sid="COMMON">
                    <phong>
                        <diffuse>
                            <texture texture="enm_cmn_pieces_dif_HD-image-sampler" texcoord="UVSET0" />
                            <color>1.000000 1.000000 1.000000 1</color>
                        </diffuse>
                    </phong>
                </technique>
            </profile_COMMON>
        </effect>
    </library_effects>
    <library_geometries>
        <geometry id="enm_spina_brk001-geometry" name="enm_spina_brk001-geometry">
            <mesh>
                <source id="enm_spina_brk001-geometry-position">
                    <float_array id="enm_spina_brk001-geometry-position-array" count="801">-0.129522 0.141019 -0.110294 -0.0308181 -0.0946903 -0.0294487 -0.0019442 -0.0946904 -0.108779 -0.143777 0.141019 -0.0294489 0.0925977 0.141019 0.203334 0.0711669 -0.0946902 0.0920923 0.0515518 0.141019 0.203334 0.0925977 -0.0946902 0.0920923 -0.0255894 0.141019 0.175258 0.0116415 -0.0125774 0.111667 -0.0054779 0.0056891 0.110146 -0.0884755 0.141019 0.12249 -0.0439825 0.0183163 0.0841608 -0.0558911 0.0133533 0.0633413 -0.0248867 0.0164866 0.100062 -0.0602114 -0.0008429 0.0429568 -0.129522 0.141019 0.0513961 -0.0468358 -0.0420235 0.0220342 -0.0233751 -0.0946903 0.0127621 -0.0308181 -0.0946903 -0.0294487 -0.0468358 -0.0420235 0.0220342 -0.0328895 -0.0629091 0.0266134 -0.0233751 -0.0946903 0.0127621 -0.017013 -0.0778196 0.0402359 0.0308899 -0.0946903 0.0774327 -0.0006851 -0.082168 0.0585755 0.0116415 -0.0125774 0.111667 0.0711669 -0.0946902 0.0920923 0.022353 -0.0338713 0.104871 0.022353 -0.0338713 0.104871 0.0308899 -0.0946903 0.0774327 0.02226 -0.0567007 0.0933714 0.0308899 -0.0946903 0.0774327 0.0143774 -0.0736044 0.0765168 0.02226 -0.0567007 0.0933714 0.0308899 -0.0946903 0.0774327 0.0143774 -0.0736044 0.0765168 -0.0560895 -0.0192996 0.0274052 -0.0560895 -0.0192996 0.0274052 -0.0468358 -0.0420235 0.0220342 -0.0661512 -0.0291701 0.0372397 -0.0542279 -0.0492752 0.0292595 -0.0560895 -0.0192996 0.0274052 -0.0699135 -0.0101228 0.0525076 -0.0602114 -0.0008429 0.0429568 -0.0647697 0.0040941 0.0720392 -0.0558911 0.0133533 0.0633413 -0.0517386 0.0106648 0.0919661 -0.0439825 0.0183163 0.0841608 -0.0334011 0.0082879 0.108341 -0.0248867 0.0164866 0.100062 -0.0133892 -0.0025658 0.117922 -0.0054779 0.0056891 0.110146 0.0043335 -0.0197466 0.11881 0.0116415 -0.0125774 0.111667 0.0162568 -0.0398517 0.11083 0.022353 -0.0338713 0.104871 0.0200191 -0.058899 0.0955617 0.02226 -0.0567007 0.0933714 0.0143774 -0.0736044 0.0765168 0.0143774 -0.0736044 0.0765168 -0.0006851 -0.082168 0.0585755 0.0018443 -0.0796867 0.0561033 -0.017013 -0.0778196 0.0402359 -0.017013 -0.0778196 0.0402359 -0.0328895 -0.0629091 0.0266134 -0.0365052 -0.0664561 0.0301475 -0.0542279 -0.0492752 0.0292595 -0.0661512 -0.0291701 0.0372397 -0.0250199 -0.0345823 0.0741057 -0.0661512 -0.0291701 0.0372397 -0.0699135 -0.0101228 0.0525076 -0.0250199 -0.0345823 0.0741057 -0.0699135 -0.0101228 0.0525076 -0.0647697 0.0040941 0.0720392 -0.0250199 -0.0345823 0.0741057 -0.0647697 0.0040941 0.0720392 -0.0517386 0.0106648 0.0919661 -0.0250199 -0.0345823 0.0741057 -0.0517386 0.0106648 0.0919661 -0.0334011 0.0082879 0.108341 -0.0250199 -0.0345823 0.0741057 -0.0334011 0.0082879 0.108341 -0.0133892 -0.0025658 0.117922 -0.0250199 -0.0345823 0.0741057 -0.0133892 -0.0025658 0.117922 0.0043335 -0.0197466 0.11881 -0.0250199 -0.0345823 0.0741057 0.0043335 -0.0197466 0.11881 0.0162568 -0.0398517 0.11083 -0.0250199 -0.0345823 0.0741057 0.0162568 -0.0398517 0.11083 0.0200191 -0.058899 0.0955617 -0.0250199 -0.0345823 0.0741057 0.0200191 -0.058899 0.0955617 0.0143774 -0.0736044 0.0765168 -0.0250199 -0.0345823 0.0741057 0.0143774 -0.0736044 0.0765168 0.0018443 -0.0796867 0.0561033 -0.0250199 -0.0345823 0.0741057 0.0018443 -0.0796867 0.0561033 -0.017013 -0.0778196 0.0402359 -0.0250199 -0.0345823 0.0741057 -0.017013 -0.0778196 0.0402359 -0.0365052 -0.0664561 0.0301475 -0.0250199 -0.0345823 0.0741057 -0.0365052 -0.0664561 0.0301475 -0.0542279 -0.0492752 0.0292595 -0.0250199 -0.0345823 0.0741057 -0.073979 -0.0578672 -0.0294488 -0.0724648 -0.0389603 -0.0890936 -0.083381 -0.0389603 -0.0292787 -0.0639332 -0.0578672 -0.0864214 -0.0267227 -0.0389603 -0.106554 -0.0199241 -0.0578672 -0.100801 0.0431057 -0.0578672 0.1312 0.0036102 -0.0396175 0.124737 0.0411087 -0.0391837 0.139623 0.0044436 -0.0578673 0.114003 -0.0600889 -0.0577807 0.0395198 -0.0712844 -0.0390461 0.0383566 -0.083381 -0.0389603 -0.0292787 -0.0639331 -0.0218382 -0.0864214 -0.073979 -0.0218382 -0.0294488 -0.0724648 -0.0389603 -0.0890936 -0.0199241 -0.0218382 -0.100801 -0.0267227 -0.0389603 -0.106554 0.0411087 -0.0391837 0.139623 0.0120271 -0.0218382 0.118473 0.0441038 -0.0218382 0.131563 0.0036102 -0.0396175 0.124737 -0.0712844 -0.0390461 0.0383566 -0.0643177 -0.0218382 0.0318801 0.0927079 -0.0389656 0.115238 0.0927079 -0.0578672 0.106564 0.0927079 -0.0389656 0.115238 0.0927079 -0.0218382 0.106564 -0.0639332 -0.0578672 -0.0864214 -0.073979 -0.0578672 -0.0294488 0.0143322 -0.0578672 -0.0579351 0.0431057 -0.0578672 0.1312 0.0925977 -0.0578672 0.0544999 0.0485207 -0.0578672 0.0422773 0.0927079 -0.0578672 0.106564 0.0441038 -0.0218382 0.131563 0.0120271 -0.0218382 0.118473 0.0523124 -0.0218382 0.0445119 0.0162544 -0.057824 0.0050356 -0.0600889 -0.0577807 0.0395198 0.0044436 -0.0578673 0.114003 0.0925977 -0.0218382 0.0544999 0.0927079 -0.0218382 0.106564 -0.0643177 -0.0218382 0.0318801 0.0143323 -0.0218382 -0.0579351 0.01414 -0.0218382 0.0012157 -0.073979 -0.0218382 -0.0294488 -0.0639331 -0.0218382 -0.0864214 -0.0199241 -0.0218382 -0.100801 -0.0199241 -0.0578672 -0.100801 -0.0600889 -0.0577807 0.0395198 -0.0712844 -0.0390461 0.0383566 -0.0643177 -0.0218382 0.0318801 0.0120271 -0.0218382 0.118473 0.0485207 -0.0578672 0.0422773 0.0523124 -0.0218382 0.0445119 0.0485207 -0.0578672 0.0422773 0.0120271 -0.0218382 0.118473 0.0044436 -0.0578673 0.114003 0.0120271 -0.0218382 0.118473 0.0036102 -0.0396175 0.124737 0.0044436 -0.0578673 0.114003 0.0162544 -0.057824 0.0050356 -0.0643177 -0.0218382 0.0318801 0.01414 -0.0218382 0.0012157 -0.0643177 -0.0218382 0.0318801 0.0162544 -0.057824 0.0050356 -0.0600889 -0.0577807 0.0395198 -0.129522 0.141019 -0.110294 -0.0379662 0.137823 -0.111085 -0.143777 0.141019 -0.0294489 -0.0308181 -0.0946903 -0.0294487 0.0609117 -0.059796 -0.109911 -0.0019442 -0.0946904 -0.108779 0.0925977 0.141019 0.203334 0.134186 -0.0597958 0.0457729 0.0925977 -0.0946902 0.0920923 0.134186 -0.0597958 0.0457729 0.0925977 0.141019 0.203334 0.134186 0.137823 0.131991 0.0925977 -0.0946902 0.0920923 0.134186 -0.0597958 0.0457729 0.0711669 -0.0946902 0.0920923 0.0515518 0.141019 0.203334 0.134186 0.137823 0.131991 0.0925977 0.141019 0.203334 0.0711669 -0.0946902 0.0920923 0.0863596 -0.0597959 0.0344111 0.0308899 -0.0946903 0.0774327 0.134186 -0.0597958 0.0457729 0.0308899 -0.0946903 0.0774327 0.0443018 -0.0597959 -0.0157114 -0.0233751 -0.0946903 0.0127621 -0.0233751 -0.0946903 0.0127621 -0.0308181 -0.0946903 -0.0294487 0.0443018 -0.0597959 -0.0157114 -0.0884755 0.141019 0.12249 0.0425857 0.137823 0.11023 -0.0255894 0.141019 0.175258 -0.129522 0.141019 0.0513961 -0.0379662 0.137823 0.0142316 -0.0019442 -0.0946904 -0.108779 -0.0379662 0.137823 -0.111085 -0.129522 0.141019 -0.110294 -0.0379662 0.137823 -0.111085 -0.0019442 -0.0946904 -0.108779 0.0609117 -0.059796 -0.109911 0.134186 0.137823 0.131991 0.0863596 -0.0597959 0.0344111 0.134186 -0.0597958 0.0457729 0.0425857 0.137823 0.11023 -0.0379662 0.137823 0.0142316 0.0443018 -0.0597959 -0.0157114 0.0609117 -0.059796 -0.109911 -0.0379662 0.137823 -0.111085 -0.063389 0.0526583 -0.087831 -0.0401649 0.127028 -0.19374 -0.091996 0.0960643 -0.101019 -0.0115577 0.0836221 -0.180551 -0.0793636 0.104627 -0.100235 -0.0015703 0.0924679 -0.173099 -0.0507568 0.0612214 -0.0870464 -0.0301775 0.135873 -0.186288 -0.091996 0.0960643 -0.101019 -0.0301775 0.135873 -0.186288 -0.0793636 0.104627 -0.100235 -0.0401649 0.127028 -0.19374 -0.0115577 0.0836221 -0.180551 -0.0507568 0.0612214 -0.0870464 -0.0015703 0.0924679 -0.173099 -0.063389 0.0526583 -0.087831 0.0875164 0.0985563 -0.218422 0.0687485 0.150909 -0.22252 0.0671862 0.144799 -0.236439 0.0890784 0.104666 -0.204503 0.0671862 0.144799 -0.236439 0.0875164 0.0985563 -0.218422 0.0890784 0.104666 -0.204503 0.0687485 0.150909 -0.22252 0.0687485 0.150909 -0.22252 0.0671862 0.144799 -0.236439 0.0875164 0.0985563 -0.218422 0.0890784 0.104666 -0.204503 -0.0228553 0.0199871 -0.0397463 0.0305777 -0.0423611 -0.176686 -0.0125341 0.017344 -0.022872 0.0202568 -0.039718 -0.19356 -0.0125341 0.017344 -0.022872 0.0182954 -0.0566707 -0.183215 -0.0248166 0.0030344 -0.0294014 0.0305777 -0.0423611 -0.176686 0.148686 0.0173527 -0.257993 0.138365 0.0199959 -0.274868 0.136403 0.0030432 -0.264523 0.148686 0.0173527 -0.257993 0.138365 0.0199959 -0.274868 0.136403 0.0030432 -0.264523 0.148686 0.0173527 -0.257993 </float_array>
                    <technique_common>
                        <accessor source="#enm_spina_brk001-geometry-position-array" count="267" stride="3">
                            <param name="X" type="float" />
                            <param name="Y" type="float" />
                            <param name="Z" type="float" />
                        </accessor>
                    </technique_common>
                </source>
                <source id="enm_spina_brk001-geometry-normal">
                    <float_array id="enm_spina_brk001-geometry-normal-array" count="537">-0.882049 -0.433037 -0.185656 -0.890832 -0.44943 -0.066559 -0.836838 -0.454896 -0.304585 -0.90118 -0.433444 0.001144 0 -0.426803 0.904345 -0.156595 -0.432165 0.888094 -0.451006 -0.43136 0.781359 -0.351457 -0.429578 0.83183 -0.548278 -0.427348 0.718863 -0.690053 -0.425907 0.585176 -0.672924 -0.426835 0.604139 -0.773384 -0.418148 0.476477 -0.598641 -0.416519 0.684209 -0.836698 -0.428919 0.340537 -0.851511 -0.427447 0.303676 -0.882967 -0.426312 0.196539 -0.818839 -0.473287 0.324812 -0.78689 -0.428929 0.443648 -0.674704 -0.562675 0.477672 -0.46083 -0.47241 0.751309 -0.510275 -0.795861 0.325921 -0.309305 -0.426804 0.849805 -0.361088 -0.429341 0.827817 -0.580968 -0.424804 0.694275 -0.882661 -0.417327 0.216211 -0.547352 -0.240677 -0.801549 -0.742424 0.096233 -0.662983 -0.527588 -0.266027 -0.806772 -0.746132 0.106348 -0.65725 -0.807547 0.443494 -0.388821 -0.810647 0.432728 -0.394459 -0.731611 0.680993 -0.031515 -0.734393 0.677771 -0.035968 -0.479233 0.813392 0.32974 -0.478114 0.816162 0.324478 -0.148996 0.774745 0.614468 -0.15162 0.772223 0.616995 0.19862 0.569198 0.797849 0.185757 0.575412 0.796489 0.527829 0.262943 0.807625 0.523677 0.270927 0.807689 0.742425 -0.096232 0.662982 0.733538 -0.074665 0.675535 0.81014 -0.441139 0.386095 0.810716 -0.417267 0.410643 0.166586 0.605546 0.778179 -0.482653 0.814003 0.32318 -0.482805 0.813983 0.323004 -0.55665 -0.228405 -0.798731 -0.238699 -0.552425 -0.798655 -0.206237 -0.577098 -0.790205 -0.586923 -0.574515 0.570486 -0.587256 -0.573683 0.57098 -0.587227 -0.572979 0.571717 -0.586841 -0.572537 0.572555 -0.586176 -0.572448 0.573324 -0.585362 -0.572729 0.573875 -0.584561 -0.573324 0.574097 -0.583933 -0.574114 0.573947 -0.5836 -0.574945 0.573454 -0.582264 -0.550921 0.597875 -0.606654 -0.578817 0.544924 -0.560299 -0.572592 0.5985 -0.613972 -0.554075 0.562174 -0.586295 -0.575305 0.570336 -0.896061 -0.443851 0.008473 -0.727652 -0.408542 -0.551013 -0.892371 -0.451251 0.006766 -0.663201 -0.405193 -0.629271 -0.301901 -0.350069 -0.88674 -0.288271 -0.372141 -0.882276 0.057946 -0.421198 0.905116 -0.348729 -0.46694 0.812622 0.011717 -0.409926 0.912044 -0.355194 -0.485903 0.798583 -0.858522 -0.488108 0.157131 -0.852575 -0.500057 0.151849 -0.877338 0.47987 0.001615 -0.636239 0.419908 -0.647207 -0.879284 0.476296 -0.001097 -0.703558 0.453022 -0.547519 -0.31849 0.385062 -0.866194 -0.324535 0.414552 -0.850191 -0.010982 0.424139 0.90553 -0.335257 0.448298 0.828632 0.072932 0.419463 0.904838 -0.333995 0.449946 0.828249 -0.891241 0.429888 0.144517 -0.897937 0.416774 0.141455 0.409729 -0.371794 0.833001 0.411429 -0.380167 0.828371 0.414505 0.394716 0.819991 0.417044 0.410661 0.810822 0 -1 0 5.4e-005 -1 0.000623 0.000113 -1 0.000351 1e-006 -1 0 -1e-006 1 0 0.000131 -1 0.000911 0 -0.999999 0.001254 0 1 0 0 1 1e-006 0.291019 0.231548 0.928274 -0.871707 0.121188 -0.474806 -0.827653 0.237295 -0.508608 -0.850505 0.237245 -0.469421 0.361421 0.119395 0.924727 0.400201 0.235343 0.885693 0.034935 0.999371 0.006159 0.032158 0.99948 0.002556 0.032297 0.999478 -0.000435 0.35089 -0.936397 -0.006063 0.455404 -0.884078 0.104946 0.480302 -0.859505 0.174817 0.806756 -0.252191 0.534364 0.838956 -0.217615 0.498795 0 -0.798716 -0.601708 0.09604 -0.853439 -0.512268 0.116362 -0.849602 -0.514428 0.008536 0.999355 -0.034876 0.007663 0.999249 -0.037979 -1e-006 0.998998 -0.044748 0.220956 -0.885722 -0.408258 0.276063 -0.889066 -0.365172 0.425941 -0.900185 -0.090787 0.368782 -0.919064 -0.139001 0.022785 0.999596 -0.016974 0.015504 0.999381 -0.03157 0.017384 0.999409 -0.029656 0.028459 0.999525 -0.011818 0.028624 0.99952 -0.011872 -0.009037 -0.011317 -0.999895 -0.011513 -0.0117 -0.999865 0.212758 0.390726 -0.895582 0.482331 0.404871 -0.776812 0.212759 0.390726 -0.895582 0.478564 0.404919 -0.779113 0.854593 0.429474 -0.291929 0.886468 0.403399 -0.226811 0.914422 0.390404 0.106853 0.894303 0.447462 0 -0.619835 -0.571803 -0.537443 -0.465045 -0.523425 -0.713974 -0.619836 -0.571802 -0.537443 -0.451555 -0.520141 -0.724949 0.607814 0.568908 0.553991 0.433731 0.511285 0.741934 0.607814 0.568907 0.553992 0.448134 0.519715 0.727373 -0.56863 0.822102 -0.028436 -0.454492 0.817383 -0.354009 -0.560157 0.828158 -0.019466 -0.518072 0.815506 -0.257974 0.522718 -0.813422 0.255169 0.564162 -0.824746 0.038926 0.458898 -0.819908 0.342292 0.559209 -0.828244 0.036011 0.919707 0.310946 -0.23969 0.919706 0.310945 -0.239696 0.919706 0.310944 -0.239698 0.919708 0.310946 -0.239689 -0.262209 -0.444832 -0.856371 -0.259637 -0.447559 -0.855733 0.246823 0.438942 0.863949 0.247775 0.444357 0.860903 -0.290986 0.88287 -0.368603 -0.289154 0.888086 -0.357342 0.254495 -0.888936 0.380821 0.247504 -0.897105 0.365984 -0.284496 0.864119 -0.415162 0.879685 0.084365 0.468013 0.961348 -0.014209 0.274968 -0.669841 0.394002 -0.629345 -0.34474 -0.929909 -0.128155 -0.123526 -0.936283 0.328809 0.128053 0.70142 0.701151 -0.549625 0.810299 -0.203292 0.198239 -0.904909 -0.376618 0.750131 -0.405541 -0.522341 </float_array>
                    <technique_common>
                        <accessor source="#enm_spina_brk001-geometry-normal-array" count="179" stride="3">
                            <param name="X" type="float" />
                            <param name="Y" type="float" />
                            <param name="Z" type="float" />
                        </accessor>
                    </technique_common>
                </source>
                <source id="enm_spina_brk001-geometry-uv">
                    <float_array id="enm_spina_brk001-geometry-uv-array" count="320">-0.659957 0.586584 -0.723863 0.317929 -0.597296 0.317929 -0.723863 0.586584 -0.991572 0.586584 -0.963526 0.317929 -0.963526 0.586584 -0.991572 0.317929 -0.906693 0.586584 -0.907148 0.411519 -0.891949 0.432339 -0.8479 0.586584 -0.847163 0.446731 -0.823703 0.441074 -0.871077 0.444646 -0.803306 0.424894 -0.786714 0.586584 -0.787541 0.377958 -0.786714 0.317929 -0.799351 0.354153 -0.825059 0.337158 -0.845434 0.317929 -0.857883 0.332202 -0.913575 0.387249 -0.907272 0.361229 -0.888037 0.341962 -0.789592 0.403858 -0.222633 0.283282 -0.239219 0.256357 -0.222465 0.256357 -0.23924 0.283282 -0.256314 0.256357 -0.255979 0.283282 -0.273471 0.256357 -0.273283 0.283282 -0.290364 0.256357 -0.289885 0.283282 -0.306873 0.256357 -0.30652 0.283282 -0.323151 0.256357 -0.322648 0.283282 -0.339481 0.256357 -0.339317 0.283282 -0.356083 0.256357 -0.356072 0.283282 -0.372952 0.256357 -0.372996 0.283282 -0.389842 0.256357 -0.857798 0.33503 -0.189818 0.256357 -0.206217 0.283282 -0.206078 0.256357 -0.800219 0.374371 -0.797702 0.396673 -0.85064 0.390734 -0.80567 0.417798 -0.822544 0.433563 -0.844983 0.440845 -0.868543 0.438203 -0.888556 0.426159 -0.90106 0.407099 -0.903577 0.384798 -0.895609 0.363672 -0.878735 0.347904 -0.856296 0.340625 -0.832737 0.343264 -0.812723 0.355311 -0.354513 0.189099 -0.306625 0.207753 -0.354643 0.207753 -0.306305 0.189099 -0.257338 0.207753 -0.25737 0.189099 -0.447284 0.189099 -0.415265 0.207753 -0.447745 0.207753 -0.415265 0.189099 -0.409046 0.189099 -0.409046 0.207753 -0.306305 0.224868 -0.354513 0.224868 -0.25737 0.224868 -0.415265 0.224868 -0.448184 0.224868 -0.409046 0.224868 -0.490137 0.207753 -0.490137 0.189099 -0.490137 0.224868 -0.257407 0.170246 -0.490137 0.170246 -0.415265 0.170246 -0.448198 0.243224 -0.409046 0.170246 -0.490137 0.243224 -0.354559 0.243224 -0.409046 0.243224 -0.229261 0.293567 -0.220578 0.319173 -0.228022 0.346966 -0.356534 0.346966 -0.313634 0.293567 -0.313703 0.346966 -0.356396 0.293567 -0.361386 0.321855 -0.300496 0.293567 -0.299877 0.346966 1.76222 0.888051 1.76501 0.705669 1.73659 0.888051 1.18758 0.888349 1.1351 0.705622 1.13509 0.887955 1.51939 0.888051 1.33575 0.705669 1.34609 0.888051 1.5066 0.705669 1.33466 0.888051 1.52949 0.888051 1.29041 0.705669 1.29409 0.888051 1.22763 0.705669 1.23269 0.888051 1.61177 0.888051 1.55726 0.705669 1.56225 0.888051 1.67342 0.888051 1.67362 0.705669 1.84982 0.888051 1.84978 0.705669 1.36439 0.510184 1.52866 0.204567 1.46837 0.1831 1.47988 0.551299 1.67412 0.552965 1.63008 0.205437 1.7275 0.153941 1.82525 0.496732 0.333333 0.994187 0.666667 0.895195 0.333333 0.895195 0.666667 0.994187 0 0.895195 1 0.994187 1 0.895195 0 0.994187 0.621443 0.330172 0.865208 0.549701 0.865208 0.330172 0.621443 0.549701 0.133913 0.330172 0.377678 0.549701 0.377678 0.330172 0.133913 0.549701 0.865208 0.769229 0.621443 0.769229 0.377678 0.769229 0.133913 0.769229 0.693508 0.431679 0.708794 0.412558 0.678221 0.412558 </float_array>
                    <technique_common>
                        <accessor source="#enm_spina_brk001-geometry-uv-array" count="160" stride="2">
                            <param name="S" type="float" />
                            <param name="T" type="float" />
                        </accessor>
                    </technique_common>
                </source>
                <vertices id="enm_spina_brk001-geometry-vertex">
                    <input semantic="POSITION" source="#enm_spina_brk001-geometry-position" />
                </vertices>
                <triangles material="enm_spina_body" count="29">
                    <input semantic="VERTEX" source="#enm_spina_brk001-geometry-vertex" offset="0" />
                    <input semantic="NORMAL" source="#enm_spina_brk001-geometry-normal" offset="1" />
                    <input semantic="TEXCOORD" source="#enm_spina_brk001-geometry-uv" offset="2" set="0" />
                    <p>31 22 24 30 19 21 29 21 23 35 19 21 34 22 24 33 23 25 1 1 1 0 0 0 2 2 2 0 0 0 1 1 1 3 3 3 5 5 5 4 4 4 6 5 6 4 4 4 5 5 5 7 4 7 8 6 8 10 8 10 9 7 9 10 8 10 8 6 8 14 12 14 8 6 8 14 12 14 8 6 8 14 12 14 8 6 8 12 10 12 11 9 11 12 10 12 8 6 8 12 10 12 11 9 11 13 11 13 11 9 11 13 11 13 11 9 11 13 11 13 11 9 11 15 13 15 16 14 16 15 13 15 11 9 11 15 13 15 16 14 16 38 24 26 17 15 17 19 1 1 18 16 18 19 1 1 17 15 17 3 3 3 37 24 26 3 3 3 17 15 17 3 3 3 37 24 26 16 14 16 22 16 18 21 17 19 20 15 17 21 17 19 22 16 18 23 18 20 24 19 21 23 18 20 22 16 18 23 18 20 24 19 21 25 20 22 36 23 25 25 20 22 24 19 21 27 5 5 28 21 23 32 19 21 28 21 23 27 5 5 26 7 9 6 5 6 26 7 9 27 5 5 26 7 9 6 5 6 8 6 8 </p>
                </triangles>
                <triangles material="enm_spina_metal" count="81">
                    <input semantic="VERTEX" source="#enm_spina_brk001-geometry-vertex" offset="0" />
                    <input semantic="NORMAL" source="#enm_spina_brk001-geometry-normal" offset="1" />
                    <input semantic="TEXCOORD" source="#enm_spina_brk001-geometry-uv" offset="2" set="0" />
                    <p>69 51 54 68 51 53 67 51 52 72 52 54 71 52 55 70 52 53 75 53 54 74 53 56 73 53 55 78 54 54 77 54 57 76 54 56 81 55 54 80 55 58 79 55 57 84 56 54 83 56 59 82 56 58 87 57 54 86 57 60 85 57 59 90 58 54 89 58 61 88 58 60 93 59 54 92 59 62 91 59 61 96 60 54 95 60 63 94 60 62 99 61 54 98 61 64 97 61 63 102 62 54 101 62 65 100 62 64 105 63 54 104 63 66 103 63 65 108 64 54 107 64 52 106 64 66 161 102 98 160 102 97 159 102 96 164 103 101 163 103 100 162 103 99 167 104 102 166 104 99 165 104 100 170 105 102 169 105 103 168 105 99 173 106 105 172 106 98 171 106 104 176 107 96 175 107 104 174 107 98 58 44 46 57 43 45 59 45 47 57 43 45 58 44 46 57 43 45 56 42 44 57 43 45 58 44 46 57 43 45 56 42 44 55 41 43 54 40 42 55 41 43 56 42 44 55 41 43 54 40 42 53 39 41 52 38 40 53 39 41 54 40 42 53 39 41 52 38 40 51 37 39 50 36 38 51 37 39 52 38 40 51 37 39 50 36 38 49 35 37 48 34 36 49 35 37 50 36 38 49 35 37 48 34 36 47 33 35 46 32 34 47 33 35 48 34 36 47 33 35 46 32 34 45 31 33 44 30 32 45 31 33 46 32 34 45 31 33 44 30 32 43 29 31 42 28 30 43 29 31 44 30 32 43 29 31 42 28 30 40 26 28 39 25 27 40 26 28 42 28 30 40 26 28 39 25 27 41 27 29 65 49 50 41 27 29 39 25 27 41 27 29 65 49 50 66 50 51 64 48 49 66 50 51 65 49 50 62 47 48 61 46 22 60 45 25 61 46 22 62 47 48 63 48 20 112 68 70 113 69 71 114 70 72 113 69 71 112 68 70 110 66 68 109 65 67 110 66 68 112 68 70 110 66 68 109 65 67 111 67 69 119 75 77 111 67 69 109 65 67 111 67 69 119 75 77 120 76 78 115 71 73 116 72 74 118 74 76 116 72 74 115 71 73 117 73 75 115 71 73 117 73 75 115 71 73 117 73 75 115 71 73 133 89 85 134 90 86 133 89 85 115 71 73 124 80 68 125 81 81 126 82 71 125 81 81 124 80 68 122 78 79 121 77 69 122 78 79 124 80 68 122 78 79 121 77 69 123 79 80 131 87 78 123 79 80 121 77 69 123 79 80 131 87 78 132 88 84 127 83 75 128 84 82 130 86 74 128 84 82 127 83 75 129 85 83 135 91 85 129 85 83 127 83 75 129 85 83 135 91 85 136 92 87 140 96 73 141 93 89 143 93 86 141 93 89 140 96 73 142 96 90 149 96 76 142 96 90 140 96 73 144 97 83 146 97 91 145 97 82 146 97 91 144 97 83 150 100 93 151 100 87 150 100 93 144 97 83 138 94 67 147 98 92 148 99 77 147 98 92 138 94 67 139 95 88 137 93 70 139 95 88 138 94 67 139 95 88 137 93 70 158 93 72 153 100 94 152 100 84 154 100 95 152 100 84 153 100 94 155 100 80 153 100 94 155 100 80 153 100 94 155 100 80 153 100 94 156 100 79 157 101 81 156 100 79 153 100 94 </p>
                </triangles>
                <triangles material="enm_common_pieces" count="64">
                    <input semantic="VERTEX" source="#enm_spina_brk001-geometry-vertex" offset="0" />
                    <input semantic="NORMAL" source="#enm_spina_brk001-geometry-normal" offset="1" />
                    <input semantic="TEXCOORD" source="#enm_spina_brk001-geometry-uv" offset="2" set="0" />
                    <p>182 113 111 181 112 110 180 111 109 185 114 114 184 114 113 183 114 112 188 115 115 187 115 112 186 115 113 191 118 116 190 117 113 189 116 114 212 131 106 211 131 107 210 131 127 215 132 128 214 132 127 213 132 107 266 178 159 265 178 158 264 178 157 179 110 108 178 109 107 177 108 106 178 109 107 179 110 108 209 130 126 208 129 125 209 130 126 179 110 108 209 130 126 208 129 125 206 127 123 205 126 122 206 127 123 208 129 125 206 127 123 205 126 122 206 127 123 207 128 124 206 127 123 205 126 122 206 127 123 207 128 124 193 120 115 192 119 117 193 120 115 207 128 124 193 120 115 192 119 117 194 121 112 196 122 118 195 118 116 197 123 119 195 118 116 196 122 118 198 117 113 200 124 120 199 123 119 201 125 121 199 123 119 200 124 120 196 122 118 181 112 110 202 125 121 203 111 109 202 125 121 181 112 110 204 124 120 217 134 130 216 133 129 218 135 131 216 133 129 217 134 130 219 136 132 217 134 130 219 136 132 217 134 130 219 136 132 217 134 130 220 137 133 221 138 134 220 137 133 217 134 130 220 137 133 221 138 134 220 137 133 222 139 135 220 137 133 221 138 134 220 137 133 222 139 135 223 140 136 225 142 138 224 141 137 226 143 139 224 141 137 225 142 138 227 144 140 244 161 143 227 144 140 225 142 138 227 144 140 244 161 143 245 162 142 229 146 137 228 145 138 230 147 140 228 145 138 229 146 137 231 148 139 246 163 144 231 148 139 229 146 137 231 148 139 246 163 144 247 164 141 233 150 137 232 149 138 234 151 140 232 149 138 233 150 137 235 152 139 248 165 144 235 152 139 233 150 137 235 152 139 248 165 144 249 166 141 236 153 138 237 154 137 239 156 139 237 154 137 236 153 138 238 155 140 250 167 143 238 155 140 236 153 138 238 155 140 250 167 143 251 168 142 241 158 142 240 157 141 242 159 143 240 157 141 241 158 142 243 160 144 253 170 146 252 169 145 254 171 147 252 169 145 253 170 146 252 169 145 255 172 148 252 169 145 253 170 146 252 169 145 255 172 148 258 174 151 257 173 150 258 174 151 255 172 148 258 174 151 257 173 150 256 171 149 257 173 150 256 171 149 257 173 150 256 171 149 257 173 150 259 170 152 262 177 155 259 170 152 257 173 150 259 170 152 262 177 155 263 175 156 257 173 150 261 176 154 262 177 155 261 176 154 257 173 150 261 176 154 255 172 148 261 176 154 257 173 150 261 176 154 255 172 148 260 175 153 253 170 146 260 175 153 255 172 148 </p>
                </triangles>
            </mesh>
        </geometry>
    </library_geometries>
    <library_controllers>
        <controller id="enm_spina_brk001-controller">
            <skin source="#enm_spina_brk001-geometry">
                <bind_shape_matrix>1.0 0.0 0.0 0.0 0.0 1.0 0.0 0.0 0.0 0.0 1.0 0.0 0.0 0.0 0.0 1.0</bind_shape_matrix>
                <source id="enm_spina_brk001-controller-Joints">
                    <Name_array id="enm_spina_brk001-controller-Joints-array" count="1">enm_spina_brk001 </Name_array>
                    <technique_common>
                        <accessor source="#enm_spina_brk001-controller-Joints-array" count="1">
                            <param type="name" />
                        </accessor>
                    </technique_common>
                </source>
                <source id="enm_spina_brk001-controller-Matrices">
                    <float_array id="enm_spina_brk001-controller-Matrices-array" count="16">1 -0 0 -0 -0 1 -0 0 0 -0 1 -2e-007 -0 0 -0 1 </float_array>
                    <technique_common>
                        <accessor source="#enm_spina_brk001-controller-Matrices-array" count="1" stride="16">
                            <param type="float4x4" />
                        </accessor>
                    </technique_common>
                </source>
                <source id="enm_spina_brk001-controller-Weights">
                    <float_array id="enm_spina_brk001-controller-Weights-array" count="1">1 </float_array>
                    <technique_common>
                        <accessor source="#enm_spina_brk001-controller-Weights-array" count="1">
                            <param type="float" />
                        </accessor>
                    </technique_common>
                </source>
                <joints>
                    <input semantic="JOINT" source="#enm_spina_brk001-controller-Joints" />
                    <input semantic="INV_BIND_MATRIX" source="#enm_spina_brk001-controller-Matrices" />
                </joints>
                <vertex_weights count="267">
                    <input semantic="JOINT" offset="0" source="#enm_spina_brk001-controller-Joints" />
                    <input semantic="WEIGHT" offset="1" source="#enm_spina_brk001-controller-Weights" />
                    <vcount>1 1 1 1 1 1 1 1 1 1 1 1 1 1 1 1 1 1 1 1 1 1 1 1 1 1 1 1 1 1 1 1 1 1 1 1 1 1 1 1 1 1 1 1 1 1 1 1 1 1 1 1 1 1 1 1 1 1 1 1 1 1 1 1 1 1 1 1 1 1 1 1 1 1 1 1 1 1 1 1 1 1 1 1 1 1 1 1 1 1 1 1 1 1 1 1 1 1 1 1 1 1 1 1 1 1 1 1 1 1 1 1 1 1 1 1 1 1 1 1 1 1 1 1 1 1 1 1 1 1 1 1 1 1 1 1 1 1 1 1 1 1 1 1 1 1 1 1 1 1 1 1 1 1 1 1 1 1 1 1 1 1 1 1 1 1 1 1 1 1 1 1 1 1 1 1 1 1 1 1 1 1 1 1 1 1 1 1 1 1 1 1 1 1 1 1 1 1 1 1 1 1 1 1 1 1 1 1 1 1 1 1 1 1 1 1 1 1 1 1 1 1 1 1 1 1 1 1 1 1 1 1 1 1 1 1 1 1 1 1 1 1 1 1 1 1 1 1 1 1 1 1 1 1 1 1 1 1 1 1 1 1 1 1 1 1 1 </vcount>
                    <v>0 0 0 0 0 0 0 0 0 0 0 0 0 0 0 0 0 0 0 0 0 0 0 0 0 0 0 0 0 0 0 0 0 0 0 0 0 0 0 0 0 0 0 0 0 0 0 0 0 0 0 0 0 0 0 0 0 0 0 0 0 0 0 0 0 0 0 0 0 0 0 0 0 0 0 0 0 0 0 0 0 0 0 0 0 0 0 0 0 0 0 0 0 0 0 0 0 0 0 0 0 0 0 0 0 0 0 0 0 0 0 0 0 0 0 0 0 0 0 0 0 0 0 0 0 0 0 0 0 0 0 0 0 0 0 0 0 0 0 0 0 0 0 0 0 0 0 0 0 0 0 0 0 0 0 0 0 0 0 0 0 0 0 0 0 0 0 0 0 0 0 0 0 0 0 0 0 0 0 0 0 0 0 0 0 0 0 0 0 0 0 0 0 0 0 0 0 0 0 0 0 0 0 0 0 0 0 0 0 0 0 0 0 0 0 0 0 0 0 0 0 0 0 0 0 0 0 0 0 0 0 0 0 0 0 0 0 0 0 0 0 0 0 0 0 0 0 0 0 0 0 0 0 0 0 0 0 0 0 0 0 0 0 0 0 0 0 0 0 0 0 0 0 0 0 0 0 0 0 0 0 0 0 0 0 0 0 0 0 0 0 0 0 0 0 0 0 0 0 0 0 0 0 0 0 0 0 0 0 0 0 0 0 0 0 0 0 0 0 0 0 0 0 0 0 0 0 0 0 0 0 0 0 0 0 0 0 0 0 0 0 0 0 0 0 0 0 0 0 0 0 0 0 0 0 0 0 0 0 0 0 0 0 0 0 0 0 0 0 0 0 0 0 0 0 0 0 0 0 0 0 0 0 0 0 0 0 0 0 0 0 0 0 0 0 0 0 0 0 0 0 0 0 0 0 0 0 0 0 0 0 0 0 0 0 0 0 0 0 0 0 0 0 0 0 0 0 0 0 0 0 0 0 0 0 0 0 0 0 0 0 0 0 0 0 0 0 0 0 0 0 0 0 0 0 0 0 0 0 0 0 0 0 0 0 0 0 0 0 0 0 0 0 0 0 0 0 0 0 0 0 0 0 0 0 0 0 0 0 0 0 0 0 0 0 0 0 0 0 0 0 0 0 0 0 0 0 0 0 0 0 0 0 0 0 0 0 0 0 0 0 0 0 0 0 0 0 0 0 0 0 0 0 0 </v>
                </vertex_weights>
            </skin>
        </controller>
    </library_controllers>
    <library_visual_scenes>
        <visual_scene id="SonicGLvlScene" name="SonicGLvlScene">
            <node id="enm_spina_brk001" sid="enm_spina_brk001" name="enm_spina_brk001">
                <instance_controller url="#enm_spina_brk001-controller">
                    <bind_material>
                        <technique_common>
                            <instance_material symbol="enm_spina_body" target="#enm_spina_bodyID" />
                            <instance_material symbol="enm_spina_metal" target="#enm_spina_metalID" />
                            <instance_material symbol="enm_common_pieces" target="#enm_common_piecesID" />
                        </technique_common>
                    </bind_material>
                </instance_controller>
            </node>
            <node id="enm_spina_brk001" sid="enm_spina_brk001" name="enm_spina_brk001" type="JOINT">
                <matrix>1 0 0 -0 0 1 0 -0 0 0 1 2e-007 0 0 0 1 </matrix>
                <extra>
                    <technique profile="FCOLLADA">
                        <visibility>1.000000</visibility>
                    </technique>
                </extra>
            </node>
        </visual_scene>
    </library_visual_scenes>
    <scene>
        <instance_visual_scene url="#SonicGLvlScene" />
    </scene>
</COLLADA>
