<?xml version="1.0" ?>
<COLLADA xmlns="http://www.collada.org/2005/11/COLLADASchema" version="1.4.1">
    <asset>
        <contributor>
            <authoring_tool>SonicGLvl - COLLADA Exporter</authoring_tool>
        </contributor>
        <unit name="meters" meter="1.0" />
        <up_axis>Y_UP</up_axis>
    </asset>
    <library_images>
        <image id="epm_ch_sng_yh1_stomping1-image" name="epm_ch_sng_yh1_stomping1-image">
            <init_from>./textures/epm_ch_sng_yh1_stomping1.dds</init_from>
        </image>
    </library_images>
    <library_materials>
        <material id="epm_ch_sng_yh1_stomping1ID" name="epm_ch_sng_yh1_stomping1">
            <instance_effect url="#epm_ch_sng_yh1_stomping1-effect" />
        </material>
    </library_materials>
    <library_effects>
        <effect id="epm_ch_sng_yh1_stomping1-effect" name="epm_ch_sng_yh1_stomping1-effect">
            <profile_COMMON>
                <newparam sid="epm_ch_sng_yh1_stomping1-image-surface">
                    <surface type="2D">
                        <init_from>epm_ch_sng_yh1_stomping1-image</init_from>
                    </surface>
                </newparam>
                <newparam sid="epm_ch_sng_yh1_stomping1-image-sampler">
                    <sampler2D>
                        <source>epm_ch_sng_yh1_stomping1-image-surface</source>
                    </sampler2D>
                </newparam>
                <technique sid="COMMON">
                    <phong>
                        <diffuse>
                            <texture texture="epm_ch_sng_yh1_stomping1-image-sampler" texcoord="UVSET0" />
                            <color>1.000000 1.000000 1.000000 1</color>
                        </diffuse>
                    </phong>
                </technique>
            </profile_COMMON>
        </effect>
    </library_effects>
    <library_geometries>
        <geometry id="epm_ch_sng_yh1_stomping3-geometry" name="epm_ch_sng_yh1_stomping3-geometry">
            <mesh>
                <source id="epm_ch_sng_yh1_stomping3-geometry-position">
                    <float_array id="epm_ch_sng_yh1_stomping3-geometry-position-array" count="450">1.54179 0 -2.12603e-008 1.80047 0.158222 -0.482435 1.48926 0 -0.399046 1.86398 0.158222 -1.0966e-008 1.61426 0.158222 -0.931992 1.33523 0 -0.770897 1.31804 0.158222 -1.31804 1.09021 0 -1.09021 0.931992 0.158222 -1.61426 0.770897 0 -1.33523 0.482435 0.158222 -1.80047 0.399046 0 -1.48926 1.20264e-007 0.158222 -1.86398 5.54758e-008 0 -1.54179 -0.482434 0.158222 -1.80047 -0.399046 0 -1.48926 -0.399046 0 -1.48926 -0.931992 0.158222 -1.61426 -0.770897 0 -1.33523 -0.482434 0.158222 -1.80047 -1.31804 0.158222 -1.31804 -1.09021 0 -1.09021 -1.61426 0.158222 -0.931992 -1.33523 0 -0.770897 -1.80047 0.158222 -0.482435 -1.48926 0 -0.399046 -1.86398 0.158222 -7.36828e-007 -1.54179 0 -6.21657e-007 -1.80047 0.158222 0.482434 -1.48926 0 0.399045 -1.61426 0.158222 0.931991 -1.33523 0 0.770896 -1.31804 0.158222 1.31804 -1.09021 0 1.09021 -0.931993 0.158222 1.61426 -0.770898 0 1.33523 -0.482435 0.158222 1.80047 -0.399046 0 1.48926 -8.87052e-007 0.158222 1.86398 -7.77725e-007 0 1.54179 0.482434 0.158222 1.80047 0.399045 0 1.48926 0.931991 0.158222 1.61426 0.770896 0 1.33523 1.31804 0.158222 1.31804 1.09021 0 1.09021 1.61426 0.158222 0.931993 1.33523 0 0.770898 1.80047 0.158222 0.482436 1.48926 0 0.399047 1.93185 0.5 -0.517638 2 0.5 0 1.73205 0.5 -1 1.41421 0.5 -1.41421 1 0.5 -1.73205 0.517638 0.5 -1.93185 1.50996e-007 0.5 -2 -0.517638 0.5 -1.93185 -1 0.5 -1.73205 -0.517638 0.5 -1.93185 -1.41421 0.5 -1.41421 -1.73205 0.5 -1 -1.93185 0.5 -0.517639 -2 0.5 -7.78829e-007 -1.93185 0.5 0.517637 -1.73205 0.5 0.999999 -1.41421 0.5 1.41421 -1 0.5 1.73205 -0.517639 0.5 1.93185 -9.29825e-007 0.5 2 0.517637 0.5 1.93185 0.999999 0.5 1.73205 1.41421 0.5 1.41421 1.73205 0.5 1 1.93185 0.5 0.51764 2 0.5 0 1.80047 0.841778 -0.482435 1.93185 0.5 -0.517638 1.86398 0.841778 -2.61852e-009 1.61426 0.841778 -0.931992 1.73205 0.5 -1 1.31804 0.841778 -1.31804 1.41421 0.5 -1.41421 0.931992 0.841778 -1.61426 1 0.5 -1.73205 0.482435 0.841778 -1.80047 0.517638 0.5 -1.93185 1.20264e-007 0.841778 -1.86398 1.50996e-007 0.5 -2 -0.482434 0.841778 -1.80047 -0.517638 0.5 -1.93185 -0.517638 0.5 -1.93185 -0.931992 0.841778 -1.61426 -1 0.5 -1.73205 -0.482434 0.841778 -1.80047 -1.31804 0.841778 -1.31804 -1.41421 0.5 -1.41421 -1.61426 0.841778 -0.931992 -1.73205 0.5 -1 -1.80047 0.841778 -0.482435 -1.93185 0.5 -0.517639 -1.86398 0.841778 -7.28481e-007 -2 0.5 -7.78829e-007 -1.80047 0.841778 0.482434 -1.93185 0.5 0.517637 -1.61426 0.841778 0.931991 -1.73205 0.5 0.999999 -1.31804 0.841778 1.31804 -1.41421 0.5 1.41421 -0.931993 0.841778 1.61426 -1 0.5 1.73205 -0.482435 0.841778 1.80047 -0.517639 0.5 1.93185 -8.87052e-007 0.841778 1.86398 -9.29825e-007 0.5 2 0.482434 0.841778 1.80047 0.517637 0.5 1.93185 0.931991 0.841778 1.61426 0.999999 0.5 1.73205 1.31804 0.841778 1.31804 1.41421 0.5 1.41421 1.61426 0.841778 0.931993 1.73205 0.5 1 1.80047 0.841778 0.482436 1.93185 0.5 0.51764 1.48926 1 -0.399046 1.54179 1 -2.12603e-008 1.33523 1 -0.770897 1.09021 1 -1.09021 0.770897 1 -1.33523 0.399046 1 -1.48926 5.54758e-008 1 -1.54179 -0.399046 1 -1.48926 -0.770897 1 -1.33523 -0.399046 1 -1.48926 -1.09021 1 -1.09021 -1.33523 1 -0.770897 -1.48926 1 -0.399046 -1.54179 1 -6.21657e-007 -1.48926 1 0.399045 -1.33523 1 0.770896 -1.09021 1 1.09021 -0.770898 1 1.33523 -0.399046 1 1.48926 -7.77725e-007 1 1.54179 0.399045 1 1.48926 0.770896 1 1.33523 1.09021 1 1.09021 1.33523 1 0.770898 1.48926 1 0.399047 </float_array>
                    <technique_common>
                        <accessor source="#epm_ch_sng_yh1_stomping3-geometry-position-array" count="150" stride="3">
                            <param name="X" type="float" />
                            <param name="Y" type="float" />
                            <param name="Z" type="float" />
                        </accessor>
                    </technique_common>
                </source>
                <source id="epm_ch_sng_yh1_stomping3-geometry-normal">
                    <float_array id="epm_ch_sng_yh1_stomping3-geometry-normal-array" count="360">0.440799 -0.897606 1.76827e-008 0.721806 -0.664522 -0.193408 0.425779 -0.897606 -0.114087 0.747269 -0.664522 1.90567e-007 0.647154 -0.664522 -0.373634 0.381743 -0.897606 -0.220399 0.528399 -0.664522 -0.528399 0.311692 -0.897606 -0.311692 0.373634 -0.664522 -0.647153 0.220399 -0.897606 -0.381743 0.193408 -0.664522 -0.721806 0.114087 -0.897606 -0.425779 1.76209e-007 -0.664522 -0.747269 4.75223e-008 -0.897606 -0.440799 -0.193408 -0.664522 -0.721806 -0.114087 -0.897606 -0.425779 -0.373634 -0.664522 -0.647153 -0.220399 -0.897606 -0.381743 -0.528399 -0.664522 -0.528399 -0.311692 -0.897606 -0.311692 -0.647153 -0.664522 -0.373635 -0.381743 -0.897606 -0.2204 -0.721806 -0.664522 -0.193408 -0.425779 -0.897606 -0.114087 -0.747269 -0.664522 -3.41976e-007 -0.440799 -0.897606 -2.08877e-007 -0.721806 -0.664522 0.193407 -0.425779 -0.897606 0.114087 -0.647154 -0.664522 0.373634 -0.381743 -0.897606 0.220399 -0.528399 -0.664522 0.528399 -0.311692 -0.897606 0.311692 -0.373635 -0.664522 0.647153 -0.2204 -0.897606 0.381743 -0.193408 -0.664522 0.721806 -0.114087 -0.897606 0.425779 -4.68585e-007 -0.664522 0.747269 -2.45348e-007 -0.897606 0.440799 0.193407 -0.664522 0.721806 0.114087 -0.897606 0.425779 0.373634 -0.664522 0.647154 0.220399 -0.897606 0.381743 0.528399 -0.664522 0.528399 0.311692 -0.897606 0.311692 0.647153 -0.664522 0.373635 0.381743 -0.897606 0.2204 0.721806 -0.664522 0.193408 0.425779 -0.897606 0.114087 0.965926 2.65307e-008 -0.258819 1 -2.12246e-008 1.93674e-007 0.866025 1.59184e-008 -0.5 0.707107 5.30614e-009 -0.707107 0.5 -3.7143e-008 -0.866025 0.258819 -1.00817e-007 -0.965926 1.83062e-007 -2.12246e-008 -1 -0.258819 1.16735e-007 -0.965926 -0.5 7.4286e-008 -0.866025 -0.707107 1.06123e-008 -0.707107 -0.866025 -6.36737e-008 -0.5 -0.965926 -1.22041e-007 -0.258819 -1 2.12246e-008 -4.96124e-007 -0.965926 5.83675e-008 0.258819 -0.866026 -8.48982e-008 0.5 -0.707107 -6.36737e-008 0.707106 -0.5 -3.7143e-008 0.866025 -0.258819 -1.53878e-007 0.965926 -5.50512e-007 -3.7143e-008 1 0.258818 -2.65307e-008 0.965926 0.5 -8.48982e-008 0.866026 0.707106 -5.83675e-008 0.707107 0.866025 -5.30614e-009 0.5 0.965926 -2.12246e-008 0.25882 0.721806 0.664522 -0.193408 0.747269 0.664522 1.13557e-007 0.647154 0.664522 -0.373634 0.528399 0.664522 -0.528399 0.373634 0.664522 -0.647153 0.193408 0.664522 -0.721806 1.08336e-007 0.664522 -0.747269 -0.193408 0.664522 -0.721806 -0.373634 0.664522 -0.647153 -0.528399 0.664522 -0.528399 -0.647153 0.664522 -0.373635 -0.721806 0.664522 -0.193408 -0.747269 0.664522 -3.12607e-007 -0.721806 0.664522 0.193407 -0.647154 0.664522 0.373634 -0.528399 0.664522 0.528399 -0.373634 0.664522 0.647153 -0.193408 0.664522 0.721806 -4.00712e-007 0.664522 0.747269 0.193407 0.664522 0.721806 0.373634 0.664522 0.647154 0.528398 0.664522 0.528399 0.647153 0.664522 0.373635 0.721806 0.664522 0.193408 0.425779 0.897606 -0.114087 0.440799 0.897606 8.06774e-008 0.381743 0.897606 -0.220399 0.311692 0.897606 -0.311692 0.220399 0.897606 -0.381743 0.114087 0.897606 -0.425779 1.39251e-007 0.897606 -0.440799 -0.114087 0.897606 -0.425779 -0.2204 0.897606 -0.381743 -0.311692 0.897606 -0.311692 -0.381743 0.897606 -0.2204 -0.425779 0.897606 -0.114087 -0.440798 0.897606 -2.74082e-007 -0.425779 0.897606 0.114087 -0.381743 0.897606 0.220399 -0.311692 0.897606 0.311691 -0.220399 0.897606 0.381743 -0.114087 0.897606 0.425779 -3.05027e-007 0.897606 0.440799 0.114087 0.897606 0.425779 0.220399 0.897606 0.381743 0.311691 0.897606 0.311692 0.381742 0.897606 0.220399 0.425779 0.897606 0.114087 </float_array>
                    <technique_common>
                        <accessor source="#epm_ch_sng_yh1_stomping3-geometry-normal-array" count="120" stride="3">
                            <param name="X" type="float" />
                            <param name="Y" type="float" />
                            <param name="Z" type="float" />
                        </accessor>
                    </technique_common>
                </source>
                <source id="epm_ch_sng_yh1_stomping3-geometry-uv">
                    <float_array id="epm_ch_sng_yh1_stomping3-geometry-uv-array" count="300">0.5 0.99 0.416667 0.683373 0.416667 0.99 0.5 0.683373 0.333333 0.683373 0.333333 0.99 0.25 0.683373 0.25 0.99 0.166667 0.683373 0.166667 0.99 0.0833335 0.683373 0.0833335 0.99 1.19209e-007 0.683373 1.19209e-007 0.99 -0.0833333 0.683373 -0.0833333 0.99 1.91667 0.99 1.83333 0.683373 1.83333 0.99 1.91667 0.683373 1.75 0.683373 1.75 0.99 1.66667 0.683373 1.66667 0.99 1.58333 0.683373 1.58333 0.99 1.5 0.683373 1.5 0.99 1.41667 0.683373 1.41667 0.99 1.33333 0.683373 1.33333 0.99 1.25 0.683373 1.25 0.99 1.16667 0.683373 1.16667 0.99 1.08333 0.683373 1.08333 0.99 1 0.683373 1 0.99 0.916667 0.683373 0.916667 0.99 0.833334 0.683373 0.833334 0.99 0.75 0.683373 0.75 0.99 0.666667 0.683373 0.666667 0.99 0.583334 0.683373 0.583334 0.99 0.416667 0.015 0.5 0.015 0.333333 0.015 0.25 0.015 0.166667 0.015 0.0833335 0.015 1.19209e-007 0.015 -0.0833333 0.015 1.83333 0.015 1.91667 0.015 1.75 0.015 1.66667 0.015 1.58333 0.015 1.5 0.015 1.41667 0.015 1.33333 0.015 1.25 0.015 1.16667 0.015 1.08333 0.015 1 0.015 0.916667 0.015 0.833334 0.015 0.75 0.015 0.666667 0.015 0.583334 0.015 1.5 0.015 1.58333 0.683373 1.58333 0.015 1.5 0.683373 1.66667 0.683373 1.66667 0.015 1.75 0.683373 1.75 0.015 1.83333 0.683373 1.83333 0.015 1.91667 0.683373 1.91667 0.015 2 0.683373 2 0.015 2.08333 0.683373 2.08333 0.015 0.0833332 0.015 0.166667 0.683373 0.166667 0.015 0.0833332 0.683373 0.25 0.683373 0.25 0.015 0.333333 0.683373 0.333333 0.015 0.416667 0.683373 0.416667 0.015 0.5 0.683373 0.5 0.015 0.583333 0.683373 0.583333 0.015 0.666666 0.683373 0.666666 0.015 0.75 0.683373 0.75 0.015 0.833333 0.683373 0.833333 0.015 0.916666 0.683373 0.916666 0.015 1 0.683373 1 0.015 1.08333 0.683373 1.08333 0.015 1.16667 0.683373 1.16667 0.015 1.25 0.683373 1.25 0.015 1.33333 0.683373 1.33333 0.015 1.41667 0.683373 1.41667 0.015 1.58333 0.99 1.5 0.99 1.66667 0.99 1.75 0.99 1.83333 0.99 1.91667 0.99 2 0.99 2.08333 0.99 0.166667 0.99 0.0833332 0.99 0.25 0.99 0.333333 0.99 0.416667 0.99 0.5 0.99 0.583333 0.99 0.666666 0.99 0.75 0.99 0.833333 0.99 0.916666 0.99 1 0.99 1.08333 0.99 1.16667 0.99 1.25 0.99 1.33333 0.99 1.41667 0.99 </float_array>
                    <technique_common>
                        <accessor source="#epm_ch_sng_yh1_stomping3-geometry-uv-array" count="150" stride="2">
                            <param name="S" type="float" />
                            <param name="T" type="float" />
                        </accessor>
                    </technique_common>
                </source>
                <vertices id="epm_ch_sng_yh1_stomping3-geometry-vertex">
                    <input semantic="POSITION" source="#epm_ch_sng_yh1_stomping3-geometry-position" />
                </vertices>
                <triangles material="epm_ch_sng_yh1_stomping1" count="198">
                    <input semantic="VERTEX" source="#epm_ch_sng_yh1_stomping3-geometry-vertex" offset="0" />
                    <input semantic="NORMAL" source="#epm_ch_sng_yh1_stomping3-geometry-normal" offset="1" />
                    <input semantic="TEXCOORD" source="#epm_ch_sng_yh1_stomping3-geometry-uv" offset="2" set="0" />
                    <p>14 14 14 13 13 13 15 15 15 13 13 13 14 14 14 13 13 13 12 12 12 13 13 13 14 14 14 13 13 13 12 12 12 11 11 11 10 10 10 11 11 11 12 12 12 11 11 11 10 10 10 9 9 9 8 8 8 9 9 9 10 10 10 9 9 9 8 8 8 7 7 7 6 6 6 7 7 7 8 8 8 7 7 7 6 6 6 5 5 5 4 4 4 5 5 5 6 6 6 5 5 5 4 4 4 2 2 2 1 1 1 2 2 2 4 4 4 2 2 2 1 1 1 0 0 0 3 3 3 0 0 0 1 1 1 0 0 0 3 3 3 49 47 49 48 46 48 49 47 49 3 3 3 49 47 49 48 46 48 47 45 47 46 44 46 47 45 47 48 46 48 47 45 47 46 44 46 45 43 45 44 42 44 45 43 45 46 44 46 45 43 45 44 42 44 43 41 43 42 40 42 43 41 43 44 42 44 43 41 43 42 40 42 41 39 41 40 38 40 41 39 41 42 40 42 41 39 41 40 38 40 39 37 39 38 36 38 39 37 39 40 38 40 39 37 39 38 36 38 37 35 37 36 34 36 37 35 37 38 36 38 37 35 37 36 34 36 35 33 35 34 32 34 35 33 35 36 34 36 35 33 35 34 32 34 33 31 33 32 30 32 33 31 33 34 32 34 33 31 33 32 30 32 31 29 31 30 28 30 31 29 31 32 30 32 31 29 31 30 28 30 29 27 29 28 26 28 29 27 29 30 28 30 29 27 29 28 26 28 27 25 27 26 24 26 27 25 27 28 26 28 27 25 27 26 24 26 25 23 25 24 22 24 25 23 25 26 24 26 25 23 25 24 22 24 23 21 23 22 20 22 23 21 23 24 22 24 23 21 23 22 20 22 21 19 21 20 18 20 21 19 21 22 20 22 21 19 21 20 18 20 18 17 18 17 16 17 18 17 18 20 18 20 18 17 18 17 16 17 16 15 16 17 16 17 16 15 16 17 16 17 16 15 16 17 16 17 19 14 19 58 56 58 19 14 19 17 16 17 19 14 19 58 56 58 59 55 59 17 16 17 60 57 60 58 56 58 60 57 60 17 16 17 60 57 60 20 18 20 60 57 60 17 16 17 60 57 60 20 18 20 61 58 61 22 20 22 61 58 61 20 18 20 61 58 61 22 20 22 62 59 62 24 22 24 62 59 62 22 20 22 62 59 62 24 22 24 63 60 63 26 24 26 63 60 63 24 22 24 63 60 63 26 24 26 64 61 64 28 26 28 64 61 64 26 24 26 64 61 64 28 26 28 65 62 65 30 28 30 65 62 65 28 26 28 65 62 65 30 28 30 66 63 66 32 30 32 66 63 66 30 28 30 66 63 66 32 30 32 67 64 67 34 32 34 67 64 67 32 30 32 67 64 67 34 32 34 68 65 68 36 34 36 68 65 68 34 32 34 68 65 68 36 34 36 69 66 69 38 36 38 69 66 69 36 34 36 69 66 69 38 36 38 70 67 70 40 38 40 70 67 70 38 36 38 70 67 70 40 38 40 71 68 71 42 40 42 71 68 71 40 38 40 71 68 71 42 40 42 72 69 72 44 42 44 72 69 72 42 40 42 72 69 72 44 42 44 73 70 73 46 44 46 73 70 73 44 42 44 73 70 73 46 44 46 74 71 74 48 46 48 74 71 74 46 44 46 74 71 74 48 46 48 51 49 51 3 3 3 51 49 51 48 46 48 51 49 51 3 3 3 50 48 50 1 1 1 50 48 50 3 3 3 50 48 50 1 1 1 52 50 52 4 4 4 52 50 52 1 1 1 52 50 52 4 4 4 53 51 53 6 6 6 53 51 53 4 4 4 53 51 53 6 6 6 54 52 54 8 8 8 54 52 54 6 6 6 54 52 54 8 8 8 55 53 55 10 10 10 55 53 55 8 8 8 55 53 55 10 10 10 56 54 56 12 12 12 56 54 56 10 10 10 56 54 56 12 12 12 57 55 57 14 14 14 57 55 57 12 12 12 89 79 89 88 54 88 90 55 90 88 54 88 89 79 89 88 54 88 87 78 87 88 54 88 89 79 89 88 54 88 87 78 87 86 53 86 85 77 85 86 53 86 87 78 87 86 53 86 85 77 85 84 52 84 83 76 83 84 52 84 85 77 85 84 52 84 83 76 83 82 51 82 81 75 81 82 51 82 83 76 83 82 51 82 81 75 81 80 50 80 79 74 79 80 50 80 81 75 81 80 50 80 79 74 79 77 48 77 76 72 76 77 48 77 79 74 79 77 48 77 76 72 76 75 49 75 78 73 78 75 49 75 76 72 76 75 49 75 78 73 78 124 71 124 123 95 123 124 71 124 78 73 78 124 71 124 123 95 123 122 70 122 121 94 121 122 70 122 123 95 123 122 70 122 121 94 121 120 69 120 119 93 119 120 69 120 121 94 121 120 69 120 119 93 119 118 68 118 117 92 117 118 68 118 119 93 119 118 68 118 117 92 117 116 67 116 115 91 115 116 67 116 117 92 117 116 67 116 115 91 115 114 66 114 113 90 113 114 66 114 115 91 115 114 66 114 113 90 113 112 65 112 111 89 111 112 65 112 113 90 113 112 65 112 111 89 111 110 64 110 109 88 109 110 64 110 111 89 111 110 64 110 109 88 109 108 63 108 107 87 107 108 63 108 109 88 109 108 63 108 107 87 107 106 62 106 105 86 105 106 62 106 107 87 107 106 62 106 105 86 105 104 61 104 103 85 103 104 61 104 105 86 105 104 61 104 103 85 103 102 60 102 101 84 101 102 60 102 103 85 103 102 60 102 101 84 101 100 59 100 99 83 99 100 59 100 101 84 101 100 59 100 99 83 99 98 58 98 97 82 97 98 58 98 99 83 99 98 58 98 97 82 97 96 57 96 95 81 95 96 57 96 97 82 97 96 57 96 95 81 95 93 56 93 92 80 92 93 56 93 95 81 95 93 56 93 92 80 92 91 55 91 92 80 92 91 55 91 92 80 92 91 55 91 92 80 92 94 79 94 133 104 133 94 79 94 92 80 92 94 79 94 133 104 133 134 103 134 92 80 92 135 105 135 133 104 133 135 105 135 92 80 92 135 105 135 95 81 95 135 105 135 92 80 92 135 105 135 95 81 95 136 106 136 97 82 97 136 106 136 95 81 95 136 106 136 97 82 97 137 107 137 99 83 99 137 107 137 97 82 97 137 107 137 99 83 99 138 108 138 101 84 101 138 108 138 99 83 99 138 108 138 101 84 101 139 109 139 103 85 103 139 109 139 101 84 101 139 109 139 103 85 103 140 110 140 105 86 105 140 110 140 103 85 103 140 110 140 105 86 105 141 111 141 107 87 107 141 111 141 105 86 105 141 111 141 107 87 107 142 112 142 109 88 109 142 112 142 107 87 107 142 112 142 109 88 109 143 113 143 111 89 111 143 113 143 109 88 109 143 113 143 111 89 111 144 114 144 113 90 113 144 114 144 111 89 111 144 114 144 113 90 113 145 115 145 115 91 115 145 115 145 113 90 113 145 115 145 115 91 115 146 116 146 117 92 117 146 116 146 115 91 115 146 116 146 117 92 117 147 117 147 119 93 119 147 117 147 117 92 117 147 117 147 119 93 119 148 118 148 121 94 121 148 118 148 119 93 119 148 118 148 121 94 121 149 119 149 123 95 123 149 119 149 121 94 121 149 119 149 123 95 123 126 97 126 78 73 78 126 97 126 123 95 123 126 97 126 78 73 78 125 96 125 76 72 76 125 96 125 78 73 78 125 96 125 76 72 76 127 98 127 79 74 79 127 98 127 76 72 76 127 98 127 79 74 79 128 99 128 81 75 81 128 99 128 79 74 79 128 99 128 81 75 81 129 100 129 83 76 83 129 100 129 81 75 81 129 100 129 83 76 83 130 101 130 85 77 85 130 101 130 83 76 83 130 101 130 85 77 85 131 102 131 87 78 87 131 102 131 85 77 85 131 102 131 87 78 87 132 103 132 89 79 89 132 103 132 87 78 87 </p>
                </triangles>
            </mesh>
        </geometry>
    </library_geometries>
    <library_controllers>
        <controller id="epm_ch_sng_yh1_stomping3-controller">
            <skin source="#epm_ch_sng_yh1_stomping3-geometry">
                <bind_shape_matrix>1.0 0.0 0.0 0.0 0.0 1.0 0.0 0.0 0.0 0.0 1.0 0.0 0.0 0.0 0.0 1.0</bind_shape_matrix>
                <source id="epm_ch_sng_yh1_stomping3-controller-Joints">
                    <Name_array id="epm_ch_sng_yh1_stomping3-controller-Joints-array" count="1">epm_ch_sng_yh1_stomping3 </Name_array>
                    <technique_common>
                        <accessor source="#epm_ch_sng_yh1_stomping3-controller-Joints-array" count="1">
                            <param type="name" />
                        </accessor>
                    </technique_common>
                </source>
                <source id="epm_ch_sng_yh1_stomping3-controller-Matrices">
                    <float_array id="epm_ch_sng_yh1_stomping3-controller-Matrices-array" count="16">1 -0 0 -0 -0 1 -0 0 0 -0 1 -0 -0 0 -0 1 </float_array>
                    <technique_common>
                        <accessor source="#epm_ch_sng_yh1_stomping3-controller-Matrices-array" count="1" stride="16">
                            <param type="float4x4" />
                        </accessor>
                    </technique_common>
                </source>
                <source id="epm_ch_sng_yh1_stomping3-controller-Weights">
                    <float_array id="epm_ch_sng_yh1_stomping3-controller-Weights-array" count="1">1 </float_array>
                    <technique_common>
                        <accessor source="#epm_ch_sng_yh1_stomping3-controller-Weights-array" count="1">
                            <param type="float" />
                        </accessor>
                    </technique_common>
                </source>
                <joints>
                    <input semantic="JOINT" source="#epm_ch_sng_yh1_stomping3-controller-Joints" />
                    <input semantic="INV_BIND_MATRIX" source="#epm_ch_sng_yh1_stomping3-controller-Matrices" />
                </joints>
                <vertex_weights count="150">
                    <input semantic="JOINT" offset="0" source="#epm_ch_sng_yh1_stomping3-controller-Joints" />
                    <input semantic="WEIGHT" offset="1" source="#epm_ch_sng_yh1_stomping3-controller-Weights" />
                    <vcount>1 1 1 1 1 1 1 1 1 1 1 1 1 1 1 1 1 1 1 1 1 1 1 1 1 1 1 1 1 1 1 1 1 1 1 1 1 1 1 1 1 1 1 1 1 1 1 1 1 1 1 1 1 1 1 1 1 1 1 1 1 1 1 1 1 1 1 1 1 1 1 1 1 1 1 1 1 1 1 1 1 1 1 1 1 1 1 1 1 1 1 1 1 1 1 1 1 1 1 1 1 1 1 1 1 1 1 1 1 1 1 1 1 1 1 1 1 1 1 1 1 1 1 1 1 1 1 1 1 1 1 1 1 1 1 1 1 1 1 1 1 1 1 1 1 1 1 1 1 1 </vcount>
                    <v>0 0 0 0 0 0 0 0 0 0 0 0 0 0 0 0 0 0 0 0 0 0 0 0 0 0 0 0 0 0 0 0 0 0 0 0 0 0 0 0 0 0 0 0 0 0 0 0 0 0 0 0 0 0 0 0 0 0 0 0 0 0 0 0 0 0 0 0 0 0 0 0 0 0 0 0 0 0 0 0 0 0 0 0 0 0 0 0 0 0 0 0 0 0 0 0 0 0 0 0 0 0 0 0 0 0 0 0 0 0 0 0 0 0 0 0 0 0 0 0 0 0 0 0 0 0 0 0 0 0 0 0 0 0 0 0 0 0 0 0 0 0 0 0 0 0 0 0 0 0 0 0 0 0 0 0 0 0 0 0 0 0 0 0 0 0 0 0 0 0 0 0 0 0 0 0 0 0 0 0 0 0 0 0 0 0 0 0 0 0 0 0 0 0 0 0 0 0 0 0 0 0 0 0 0 0 0 0 0 0 0 0 0 0 0 0 0 0 0 0 0 0 0 0 0 0 0 0 0 0 0 0 0 0 0 0 0 0 0 0 0 0 0 0 0 0 0 0 0 0 0 0 0 0 0 0 0 0 0 0 0 0 0 0 0 0 0 0 0 0 0 0 0 0 0 0 0 0 0 0 0 0 0 0 0 0 0 0 0 0 0 0 0 0 0 0 0 0 0 0 </v>
                </vertex_weights>
            </skin>
        </controller>
    </library_controllers>
    <library_visual_scenes>
        <visual_scene id="SonicGLvlScene" name="SonicGLvlScene">
            <node id="epm_ch_sng_yh1_stomping3" sid="epm_ch_sng_yh1_stomping3" name="epm_ch_sng_yh1_stomping3">
                <instance_controller url="#epm_ch_sng_yh1_stomping3-controller">
                    <bind_material>
                        <technique_common>
                            <instance_material symbol="epm_ch_sng_yh1_stomping1" target="#epm_ch_sng_yh1_stomping1ID" />
                        </technique_common>
                    </bind_material>
                </instance_controller>
            </node>
            <node id="epm_ch_sng_yh1_stomping3" sid="epm_ch_sng_yh1_stomping3" name="epm_ch_sng_yh1_stomping3" type="JOINT">
                <matrix>1 0 0 -0 0 1 0 -0 0 0 1 -0 0 0 0 1 </matrix>
                <extra>
                    <technique profile="FCOLLADA">
                        <visibility>1.000000</visibility>
                    </technique>
                </extra>
            </node>
        </visual_scene>
    </library_visual_scenes>
    <scene>
        <instance_visual_scene url="#SonicGLvlScene" />
    </scene>
</COLLADA>
