<?xml version="1.0" ?>
<COLLADA xmlns="http://www.collada.org/2005/11/COLLADASchema" version="1.4.1">
    <asset>
        <contributor>
            <authoring_tool>SonicGLvl - COLLADA Exporter</authoring_tool>
        </contributor>
        <unit name="meters" meter="1.0" />
        <up_axis>Y_UP</up_axis>
    </asset>
    <library_images>
        <image id="epm_ch_sng_yh1_stomping2-image" name="epm_ch_sng_yh1_stomping2-image">
            <init_from>./textures/epm_ch_sng_yh1_stomping2.dds</init_from>
        </image>
    </library_images>
    <library_materials>
        <material id="epm_ch_sng_yh1_stomping2ID" name="epm_ch_sng_yh1_stomping2">
            <instance_effect url="#epm_ch_sng_yh1_stomping2-effect" />
        </material>
    </library_materials>
    <library_effects>
        <effect id="epm_ch_sng_yh1_stomping2-effect" name="epm_ch_sng_yh1_stomping2-effect">
            <profile_COMMON>
                <newparam sid="epm_ch_sng_yh1_stomping2-image-surface">
                    <surface type="2D">
                        <init_from>epm_ch_sng_yh1_stomping2-image</init_from>
                    </surface>
                </newparam>
                <newparam sid="epm_ch_sng_yh1_stomping2-image-sampler">
                    <sampler2D>
                        <source>epm_ch_sng_yh1_stomping2-image-surface</source>
                    </sampler2D>
                </newparam>
                <technique sid="COMMON">
                    <phong>
                        <diffuse>
                            <texture texture="epm_ch_sng_yh1_stomping2-image-sampler" texcoord="UVSET0" />
                            <color>1.000000 1.000000 1.000000 1</color>
                        </diffuse>
                    </phong>
                </technique>
            </profile_COMMON>
        </effect>
    </library_effects>
    <library_geometries>
        <geometry id="epm_ch_sng_yh1_stomping2-geometry" name="epm_ch_sng_yh1_stomping2-geometry">
            <mesh>
                <source id="epm_ch_sng_yh1_stomping2-geometry-position">
                    <float_array id="epm_ch_sng_yh1_stomping2-geometry-position-array" count="150">0.49388 0 6.54671e-010 0.562526 0.1 -0.150728 0.477051 0 -0.127826 0.58237 0.1 1.90818e-010 0.504347 0.1 -0.291185 0.427713 0 -0.24694 0.411798 0.1 -0.411798 0.349226 0 -0.349226 0.291185 0.1 -0.504347 0.24694 0 -0.427713 0.150728 0.1 -0.562526 0.127825 0 -0.477051 -2.63968e-008 0.1 -0.58237 -2.10459e-008 0 -0.49388 -0.150728 0.1 -0.562526 -0.127826 0 -0.477051 -0.127826 0 -0.477051 -0.291185 0.1 -0.504347 -0.24694 0 -0.427713 -0.150728 0.1 -0.562526 -0.411798 0.1 -0.411798 -0.349226 0 -0.349226 -0.504347 0.1 -0.291185 -0.427713 0 -0.24694 -0.562526 0.1 -0.150728 -0.477051 0 -0.127825 -0.58237 0.1 5.11032e-008 -0.49388 0 4.3831e-008 -0.562526 0.1 0.150728 -0.477051 0 0.127826 -0.504347 0.1 0.291185 -0.427713 0 0.24694 -0.411798 0.1 0.411798 -0.349226 0 0.349226 -0.291185 0.1 0.504347 -0.24694 0 0.427713 -0.150728 0.1 0.562526 -0.127825 0 0.477051 7.5428e-008 0.1 0.58237 6.53068e-008 0 0.49388 0.150729 0.1 0.562526 0.127826 0 0.477051 0.291185 0.1 0.504347 0.24694 0 0.427713 0.411798 0.1 0.411798 0.349226 0 0.349226 0.504347 0.1 0.291185 0.427713 0 0.24694 0.562526 0.1 0.150728 0.477051 0 0.127825 </float_array>
                    <technique_common>
                        <accessor source="#epm_ch_sng_yh1_stomping2-geometry-position-array" count="50" stride="3">
                            <param name="X" type="float" />
                            <param name="Y" type="float" />
                            <param name="Z" type="float" />
                        </accessor>
                    </technique_common>
                </source>
                <source id="epm_ch_sng_yh1_stomping2-geometry-normal">
                    <float_array id="epm_ch_sng_yh1_stomping2-geometry-normal-array" count="144">0.74889 -0.662694 1.03894e-007 0.723372 -0.662694 -0.193827 0.723372 -0.662694 -0.193827 0.74889 -0.662694 9.8364e-008 0.648558 -0.662694 -0.374445 0.648558 -0.662694 -0.374445 0.529545 -0.662695 -0.529545 0.529545 -0.662695 -0.529545 0.374445 -0.662695 -0.648558 0.374445 -0.662694 -0.648558 0.193827 -0.662694 -0.723372 0.193827 -0.662694 -0.723372 4.53988e-008 -0.662694 -0.74889 5.42055e-008 -0.662694 -0.74889 -0.193827 -0.662694 -0.723372 -0.193827 -0.662694 -0.723372 -0.374445 -0.662694 -0.648558 -0.374445 -0.662694 -0.648558 -0.529545 -0.662694 -0.529545 -0.529545 -0.662695 -0.529545 -0.648558 -0.662694 -0.374445 -0.648558 -0.662694 -0.374445 -0.723372 -0.662694 -0.193827 -0.723372 -0.662694 -0.193827 -0.74889 -0.662694 -5.04431e-008 -0.74889 -0.662694 -5.87227e-008 -0.723372 -0.662694 0.193827 -0.723372 -0.662694 0.193827 -0.648558 -0.662694 0.374445 -0.648558 -0.662694 0.374445 -0.529545 -0.662694 0.529545 -0.529545 -0.662694 0.529545 -0.374445 -0.662694 0.648558 -0.374445 -0.662694 0.648558 -0.193827 -0.662694 0.723372 -0.193827 -0.662694 0.723372 1.0593e-007 -0.662694 0.74889 6.09812e-008 -0.662694 0.74889 0.193827 -0.662694 0.723372 0.193827 -0.662694 0.723372 0.374445 -0.662694 0.648558 0.374445 -0.662694 0.648558 0.529545 -0.662694 0.529545 0.529545 -0.662694 0.529545 0.648558 -0.662694 0.374445 0.648558 -0.662694 0.374445 0.723372 -0.662694 0.193827 0.723372 -0.662694 0.193827 </float_array>
                    <technique_common>
                        <accessor source="#epm_ch_sng_yh1_stomping2-geometry-normal-array" count="48" stride="3">
                            <param name="X" type="float" />
                            <param name="Y" type="float" />
                            <param name="Z" type="float" />
                        </accessor>
                    </technique_common>
                </source>
                <source id="epm_ch_sng_yh1_stomping2-geometry-uv">
                    <float_array id="epm_ch_sng_yh1_stomping2-geometry-uv-array" count="100">4.5 0.005 4.75 0.995 4.75 0.005 4.5 0.995 5 0.995 5 0.005 5.25 0.995 5.25 0.005 5.5 0.995 5.5 0.005 5.75 0.995 5.75 0.005 6 0.995 6 0.005 6.25 0.995 6.25 0.005 0.25 0.005 0.5 0.995 0.5 0.005 0.25 0.995 0.75 0.995 0.75 0.005 1 0.995 1 0.005 1.25 0.995 1.25 0.005 1.5 0.995 1.5 0.005 1.75 0.995 1.75 0.005 2 0.995 2 0.005 2.25 0.995 2.25 0.005 2.5 0.995 2.5 0.005 2.75 0.995 2.75 0.005 3 0.995 3 0.005 3.25 0.995 3.25 0.005 3.5 0.995 3.5 0.005 3.75 0.995 3.75 0.005 4 0.995 4 0.005 4.25 0.995 4.25 0.005 </float_array>
                    <technique_common>
                        <accessor source="#epm_ch_sng_yh1_stomping2-geometry-uv-array" count="50" stride="2">
                            <param name="S" type="float" />
                            <param name="T" type="float" />
                        </accessor>
                    </technique_common>
                </source>
                <vertices id="epm_ch_sng_yh1_stomping2-geometry-vertex">
                    <input semantic="POSITION" source="#epm_ch_sng_yh1_stomping2-geometry-position" />
                </vertices>
                <triangles material="epm_ch_sng_yh1_stomping2" count="49">
                    <input semantic="VERTEX" source="#epm_ch_sng_yh1_stomping2-geometry-vertex" offset="0" />
                    <input semantic="NORMAL" source="#epm_ch_sng_yh1_stomping2-geometry-normal" offset="1" />
                    <input semantic="TEXCOORD" source="#epm_ch_sng_yh1_stomping2-geometry-uv" offset="2" set="0" />
                    <p>14 14 14 13 13 13 15 15 15 13 13 13 14 14 14 13 13 13 12 12 12 13 13 13 14 14 14 13 13 13 12 12 12 11 11 11 10 10 10 11 11 11 12 12 12 11 11 11 10 10 10 9 9 9 8 8 8 9 9 9 10 10 10 9 9 9 8 8 8 7 7 7 6 6 6 7 7 7 8 8 8 7 7 7 6 6 6 5 5 5 4 4 4 5 5 5 6 6 6 5 5 5 4 4 4 2 2 2 1 1 1 2 2 2 4 4 4 2 2 2 1 1 1 0 0 0 3 3 3 0 0 0 1 1 1 0 0 0 3 3 3 49 47 49 48 46 48 49 47 49 3 3 3 49 47 49 48 46 48 47 45 47 46 44 46 47 45 47 48 46 48 47 45 47 46 44 46 45 43 45 44 42 44 45 43 45 46 44 46 45 43 45 44 42 44 43 41 43 42 40 42 43 41 43 44 42 44 43 41 43 42 40 42 41 39 41 40 38 40 41 39 41 42 40 42 41 39 41 40 38 40 39 37 39 38 36 38 39 37 39 40 38 40 39 37 39 38 36 38 37 35 37 36 34 36 37 35 37 38 36 38 37 35 37 36 34 36 35 33 35 34 32 34 35 33 35 36 34 36 35 33 35 34 32 34 33 31 33 32 30 32 33 31 33 34 32 34 33 31 33 32 30 32 31 29 31 30 28 30 31 29 31 32 30 32 31 29 31 30 28 30 29 27 29 28 26 28 29 27 29 30 28 30 29 27 29 28 26 28 27 25 27 26 24 26 27 25 27 28 26 28 27 25 27 26 24 26 25 23 25 24 22 24 25 23 25 26 24 26 25 23 25 24 22 24 23 21 23 22 20 22 23 21 23 24 22 24 23 21 23 22 20 22 21 19 21 20 18 20 21 19 21 22 20 22 21 19 21 20 18 20 18 17 18 17 16 17 18 17 18 20 18 20 18 17 18 17 16 17 16 15 16 19 14 19 16 15 16 17 16 17 </p>
                </triangles>
            </mesh>
        </geometry>
    </library_geometries>
    <library_controllers>
        <controller id="epm_ch_sng_yh1_stomping2-controller">
            <skin source="#epm_ch_sng_yh1_stomping2-geometry">
                <bind_shape_matrix>1.0 0.0 0.0 0.0 0.0 1.0 0.0 0.0 0.0 0.0 1.0 0.0 0.0 0.0 0.0 1.0</bind_shape_matrix>
                <source id="epm_ch_sng_yh1_stomping2-controller-Joints">
                    <Name_array id="epm_ch_sng_yh1_stomping2-controller-Joints-array" count="1">epm_ch_sng_yh1_stomping2 </Name_array>
                    <technique_common>
                        <accessor source="#epm_ch_sng_yh1_stomping2-controller-Joints-array" count="1">
                            <param type="name" />
                        </accessor>
                    </technique_common>
                </source>
                <source id="epm_ch_sng_yh1_stomping2-controller-Matrices">
                    <float_array id="epm_ch_sng_yh1_stomping2-controller-Matrices-array" count="16">1 -0 0 -0 -0 1 -0 0 0 -0 1 -0 -0 0 -0 1 </float_array>
                    <technique_common>
                        <accessor source="#epm_ch_sng_yh1_stomping2-controller-Matrices-array" count="1" stride="16">
                            <param type="float4x4" />
                        </accessor>
                    </technique_common>
                </source>
                <source id="epm_ch_sng_yh1_stomping2-controller-Weights">
                    <float_array id="epm_ch_sng_yh1_stomping2-controller-Weights-array" count="1">1 </float_array>
                    <technique_common>
                        <accessor source="#epm_ch_sng_yh1_stomping2-controller-Weights-array" count="1">
                            <param type="float" />
                        </accessor>
                    </technique_common>
                </source>
                <joints>
                    <input semantic="JOINT" source="#epm_ch_sng_yh1_stomping2-controller-Joints" />
                    <input semantic="INV_BIND_MATRIX" source="#epm_ch_sng_yh1_stomping2-controller-Matrices" />
                </joints>
                <vertex_weights count="50">
                    <input semantic="JOINT" offset="0" source="#epm_ch_sng_yh1_stomping2-controller-Joints" />
                    <input semantic="WEIGHT" offset="1" source="#epm_ch_sng_yh1_stomping2-controller-Weights" />
                    <vcount>1 1 1 1 1 1 1 1 1 1 1 1 1 1 1 1 1 1 1 1 1 1 1 1 1 1 1 1 1 1 1 1 1 1 1 1 1 1 1 1 1 1 1 1 1 1 1 1 1 1 </vcount>
                    <v>0 0 0 0 0 0 0 0 0 0 0 0 0 0 0 0 0 0 0 0 0 0 0 0 0 0 0 0 0 0 0 0 0 0 0 0 0 0 0 0 0 0 0 0 0 0 0 0 0 0 0 0 0 0 0 0 0 0 0 0 0 0 0 0 0 0 0 0 0 0 0 0 0 0 0 0 0 0 0 0 0 0 0 0 0 0 0 0 0 0 0 0 0 0 0 0 0 0 0 0 </v>
                </vertex_weights>
            </skin>
        </controller>
    </library_controllers>
    <library_visual_scenes>
        <visual_scene id="SonicGLvlScene" name="SonicGLvlScene">
            <node id="epm_ch_sng_yh1_stomping2" sid="epm_ch_sng_yh1_stomping2" name="epm_ch_sng_yh1_stomping2">
                <instance_controller url="#epm_ch_sng_yh1_stomping2-controller">
                    <bind_material>
                        <technique_common>
                            <instance_material symbol="epm_ch_sng_yh1_stomping2" target="#epm_ch_sng_yh1_stomping2ID" />
                        </technique_common>
                    </bind_material>
                </instance_controller>
            </node>
            <node id="epm_ch_sng_yh1_stomping2" sid="epm_ch_sng_yh1_stomping2" name="epm_ch_sng_yh1_stomping2" type="JOINT">
                <matrix>1 0 0 -0 0 1 0 -0 0 0 1 -0 0 0 0 1 </matrix>
                <extra>
                    <technique profile="FCOLLADA">
                        <visibility>1.000000</visibility>
                    </technique>
                </extra>
            </node>
        </visual_scene>
    </library_visual_scenes>
    <scene>
        <instance_visual_scene url="#SonicGLvlScene" />
    </scene>
</COLLADA>
